Tom, 1371
Dickie, 858
Marge, 381
Greenleaf, 278
Freddie, 146
McCarron, 83
Tom Ripley, 68
Richard, 53
Dickie Greenleaf, 48
Bob, 33
Fausto, 33
Freddie Miles, 30
Signor Greenleaf, 28
Cleo, 23
Aunt Dottie, 21
Peter, 21
Ripley, 16
Reddington, 16
Giorgio, 16
Richard Greenleaf, 14
Signora Buffi, 13
Anna, 13
Marc, 12
Di Massimo, 12
Signor Meelays, 12
Thomas Ripley, 12
Maloof, 12
Mongibello, 11
Paul, 11
God, 10
Signer Greenleaf, 10
Roverini, 9
Cartwright, 9
George McAlpin, 8
Thomas Reepley, 8
Ugo, 8
Titi, 8
Schrievers, 6
Tommie, 6
Tom , 6
Greenleafs, 5
Charley, 5
Marc Priminger, 5
Pietro, 5
Raoul, 4
Herbert Greenleaf, 4
Bob Delancey, 4
Emily, 4
Marge Sherwood, 4
Herbert Richard Greenleaf, 4
Ermelinda, 4
Christ, 4
Carlo, 4
Signor Pucci, 4
Signor Reepley, 4
Angelo, 4
Fanshaw, 4
Miss Sherwood, 4
Buddy Lankenau, 3
Ed Martin, 3
Superaugh, 3
Joel, 3
Hello, 3
Well, 3
Dad, 3
Aldo, 3
Signer Pucci, 3
Mongy, 3
Van Gogh, 3
Greco, 3
Carlino, 3
Buon giorno, 3
Signor Miles, 3
Van Houston, 3
Signorina Sherwood, 3
Signer Reepley, 3
Ebbene, 3
Gritti, 3
Tenente Roverini, 3
Tomaso, 3
Richard s, 2
Charley Schriever, 2
Buddy, 2
Jim, 2
Richard , 2
Fleming, 2
Henry James, 2
Ed, 2
Sissy, 2
Herbert, 2
TOM, 2
Gilbey, 2
Vic Simmons, 2
Vic, 2
Capri, 2
Luigi, 2
Skippy, 2
Dear Marge, 2
Dickie Tom, 2
Azur, 2
Forte dei Marmi, 2
Buffis, 2
Fredderick Meelays, 2
Signer Richard Greenleaf, 2
Miles, 2
Robert Gilbertson, 2
Miss Marjorie Sherwood, 2
Signor Ripley, 2
Mr Greenleaf, 2
Thomas Phelps Ripley, 2
Urgentissimo, 2
Robert S, 2
Danieli, 2
Marjorie Sherwood, 2
Marjorie, 2
Signor Van Houston, 2
Peter SmithKingsley, 2
Rudy, 2
Alvin McCarron, 2
Stevenson, 2
Charles, 1
Marta Schriever, 1
Auntie Dottie, 1
Richard myself, 1
Jim Burke, 1
Harper, 1
Bert Visscr, 1
Edith, 1
Carlos de Sevilla, 1
de Sevilla, 1
William J, 1
Slatterer, 1
Philip Robillard, 1
Frieda Hoehn, 1
Joseph J, 1
Gennari, 1
Frederick Reddington, 1
Frances Karnegis, 1
Ralph F, 1
Fischer, 1
HELLOO, 1
Mrs Greenleaf, 1
Parker, 1
Don Mizell, 1
Aunt Bea, 1
Listen, 1
Richard ll, 1
Street, 1
Marcellus, 1
Stern Father, 1
Cleo Dobelle, 1
Paul Hubbard, 1
John, 1
Auntie, 1
Tom No, 1
Roosevelt, 1
Simon Legrees, 1
Zi Teresa, 1
Torre del Greco, 1
Torre Annunciata, 1
Mongtbello  Tom, 1
Tom  Tom, 1
Tom didn, 1
Georgio, 1
Marge I, 1
Eduardo, 1
Ermclinda, 1
Dickie  Freddie  Dickie, 1
Tom  Dickie, 1
Fred  Tom, 1
Subito, 1
da Vincis, 1
Dickiee  Tom, 1
DickieMarge, 1
Dickie  Tom, 1
Luckies, 1
Niente, 1
Berto, 1
Tom, 1
Gray, 1
Bravo  Tom, 1
Tom Buon, 1
Spetta, 1
Tim, 1
Giorgio di Stefani, 1
Rome Tom, 1
Hotel Hassler, 1
Hassler, 1
Fausto Freddie, 1
Mongibello, 1
Mother, 1
Edward, 1
Uncle Edward, 1
Inghilterra, 1
Monsieur Granelafe, 1
Deekie Granelafe, 1
Darling, 1
Marge P, 1
Cecchis, 1
Anastasio Martino, 1
Souders, 1
Freddie  Tom, 1
Freddie s Buon giorno, 1
Buffi, 1
Mussolini, 1
Frederick Miles  Si, 1
Cortina, 1
Fausto  Bene, 1
Deekie, 1
Rividerch, 1
Deekie  Addio , 1
Dio mio  Tom, 1
Richard Greenleaf, 1
Palma, 1
Dick, 1
Van, 1
Tom Collins, 1
Faenza, 1
Buon giorno  Alone, 1
Dickie ll, 1
Van Maybe Van, 1
Luck, 1
Maria, 1
Italy, 1
Walter, 1
Dionysius Ear, 1
Norman, 1
Kate, 1
Teccato, 1
Di niente, 1
Guido Reni, 1
Tasso, 1
Marco Polo, 1
Edward T, 1
Enrico Farrara, 1
Tom Ripley , 1
Richard  Dickie  Greenleaf, 1
Frederick Miles, 1
Tenente Rovassini, 1
Richard Grcenleaf, 1
Faenza, 1
Silone, 1
Dante, 1
Benone  Tenente Roverini, 1
Ahhah, 1
Signer Greenlcaf, 1
Signerina Sherwood, 1
Signor Greenleaf , 1
Richard, 1
Naples, 1
Rome, 1
Marge, 1
Freddie , 1
Errol Flynn, 1
Paul Gauguin, 1
Oggi, 1
Hermes, 1
Dickie, 1
Condessa Roberta, 1
Riley, 1
Northup, 1
Peter Smith Kingsley, 1
Franchettis, 1
Peter s piano, 1
Pietro Franchetti, 1
Franchettis, 1
Lorenzo Franchetti, 1
Lorenzo, 1
Gauguin, 1
Maria della Salute, 1
GREENLEAF Tom, 1
Rudy Maloof, 1
Gritti, 1
Lorraine, 1
Malraux, 1
Mr Ripley, 1
Richard s , 1
Tom What, 1
Miss Sherwood, 1
Only Marge, 1
Signori , 1
Cappuccino, 1
Freddie  McCarron, 1
Papa, 1
Aunt Maria, 1
Tenente Rovcrini, 1
Jason, 1
Ulysses, 1
Titi della Latta, 1
Cacciaguerra, 1
Fanshaw , 1
alias Signer Fanshaw, 1
ROBERT S, 1
FANSHAW, 1
Dear Tom, 1
Mrs Cartwright, 1
Il meglio, 1
meglio , 1