Paul, 516
Annie, 435
Geoffrey, 108
God, 75
Annie Wilkes, 71
Ian, 62
Paul Sheldon, 53
Misery, 29
Ramage, 29
Paulie, 21
Colter, 18
Hezekiah, 17
David, 17
Christ, 15
Roydmans, 15
Goliath, 14
Roman D, 14
Novril, 13
Wicks, 12
Shinny, 11
Misery Chastain, 10
Pomeroy, 10
Rancho Grande, 9
Bossie, 9
Tony, 8
Miss Wilkes, 8
Annie , 8
Scheherazade, 7
Jesus, 7
Gray, 7
Ralph, 7
Kushner, 7
McKnight, 7
Tom Twyford, 6
Ralph Dugan, 6
Gary, 6
Charlie, 6
Tony Bonasaro, 5
Sheldon, 5
Geoffrey Alliburton, 5
Mary, 5
Billford, 5
Bourka, 5
Betadine, 5
Don, 4
Roydman, 4
Mister Smart Guy, 4
Daniel, 4
Careless, 4
Aye, 4
Shinebone, 4
Miss EvelynHyde, 4
Carl Wilkes, 4
Krenmitz, 4
Wilkes, 4
Andrew Pomeroy, 4
Duane Kushner, 4
Rider Haggard, 3
Camaro, 3
Jesus Christ, 3
Joe Blow, 3
Pain, 3
Sidewinder, 3
Kleenex, 3
Geoffrey , 3
Cranthorpe, 3
My Lord, 3
Old Bessie, 3
Maugham, 3
Bernstein, 3
Kreig, 3
Miss Saint James, 3
Peter Gunn, 3
Ernie, 3
Dugan, 3
Girl Christopher, 3
Dragon Lady, 3
Goddess, 3
Cyndi Lauper, 3
Van der Valk, 3
Sandpiper, 3
Charlie Merrill, 3
Yes, 2
Tony Roberts, 2
Dom Perignon, 2
Bryce, 2
King of Pain, 2
Goodness, 2
Ducky Daddles, 2
Warner Wolf, 2
Tom, 2
Mickey Mouse, 2
Alice, 2
Hello, 2
Humbuggy, 2
Roger Miller, 2
Thomas, 2
Mrs Krenmitz, 2
Gosh, 2
Annie s Cherokee, 2
Dickens, 2
Bertie, 2
Miss Charlotte EvelynHyde, 2
Soames, 2
John Fowles, 2
EH, 2
Sherlock Holmes, 2
Wilson, 2
Crysilda Wilkes, 2
Anne Wilkes, 2
Long Illness, 2
Paulette Simeaux, 2
Queenie ” Beaulifant, 2
Simeaux, 2
Anne Dugan, 2
Lee, 2
Kinsolving, 2
Baron, 2
Baroness, 2
Bourkas, 2
Gary Ruddman, 2
Pavlov, 2
Smokey, 2
Chibi, 2
Ms Wilkes, 2
Glenna Roberts, 2
Chuckie Yoder, 2
Rinse, 2
KoolAid, 1
Thermos, 1
Paulie I, 1
Johnson s Baby Oil, 1
“ Sidewinder, 1
Solomon s Mines, 1
Roger Sheldon, 1
Miz Wilkes, 1
Miser Chastain, 1
George, 1
Dom, 1
Bo Diddley, 1
Keflex, 1
Ginsu, 1
Bollinger, 1
Lynn, 1
Mulvaney, 1
Him, 1
Ronald Reagan, 1
ImHoTep, 1
Dear God, 1
Tears, 1
Mommy, 1
Peter Prescott, 1
Galileo, 1
Joan, 1
Kay, 1
Kay  Don, 1
Boynton, 1
Hell, 1
Kong, 1
Zeus, 1
Nancy Dartmonger, 1
Royal, 1
Carmichael, 1
Wally Cox, 1
Boom Boom Mancini, 1
Fisher, 1
Billy Haversham, 1
Corrasable Bond, 1
Webster Pot, 1
Daniel Webster, 1
Corrasable, 1
Howard Cosell, 1
Johnny Most, 1
Sweat, 1
Yeah, 1
Slim Jims, 1
John Tenniel, 1
Folks, 1
Warner, 1
Cherokee, 1
Fate, 1
No Novril, 1
Darvon, 1
Valium, 1
Paulbaby, 1
Elmer s Glue, 1
Mrs Kaspbrak, 1
Ian Carmichael, 1
Chopin, 1
Mad Jack Wickersham, 1
Hush, 1
Sean, 1
Flash Gordon, 1
Frank Buck, 1
Death, 1
Fiery Doom, 1
Cliffhangers, 1
Rocket Man, 1
Hoho, 1
Christopher Hale, 1
Hale, 1
Chris, 1
Careless Corrigan, 1
Corrigan, 1
Paul  Yeah, 1
Duncan Fromsley, 1
Patterson, 1
” Colter, 1
 Aye, 1
Bosh, 1
Iron Duke, 1
Old Shinny, 1
Tan, 1
Leroux, 1
Mary , 1
Geoffrey  I, 1
Devil, 1
Lazarus, 1
Bill, 1
Albert Fossington, 1
Geoffrey s and Ian, 1
Bertie Fossington, 1
StorpingonFirkill, 1
Rainage, 1
Guy, 1
 Yessiree Bob , 1
Hah , 1
Lord Buston, 1
Wilkesism, 1
Somerset Maugham, 1
Tyler, 1
Paul , 1
Charl, 1
Brown, 1
Edmund Wilson, 1
Wordsworth, 1
Luciano Pavarotti, 1
Victor, 1
Novocain, 1
Brer Rabbit, 1
Brer Fox, 1
ANNIE S LAUGHING, 1
Kreigs, 1
Sardines, 1
Crysilda Berryman, 1
Paul Emery Wilkes, 1
Anne Marie Wilkes, 1
Paul Krenmitz, 1
Frederick Krenmitz, 1
Alison Krenmitz, 1
Adrian Krenmitz, 1
Laurene Krenmitz, 1
Jessica Krenmitz, 1
Irving Thalman, 1
Michael O Whunn, 1
O Whunn, 1
Frank Canley, 1
Crysilda, 1
Anne, 1
Andrea Saint James, 1
Andrea, 1
Paul Harvey, 1
Missus Smart Guy, 1
Satan, 1
Ernest Gonyar, 1
Hester “ Queenie ” Beaulifant, 1
Queenie, 1
Paulette, 1
Thumbelina, 1
Joe, 1
Joseph, 1
Short Illness, 1
Laura D, 1
Rothberg, 1
Mr, 1
Laura Rothberg, 1
Divorced, 1
Angela Ford, 1
John Ford, 1
Kirsten Frawley, 1
Stanley Frawley, 1
Danna McLaren, 1
Lee McLaren, 1
Angela, 1
Jack , 1
Kirsten, 1
Danna, 1
Michael Leith Anne Wilkes, 1
Tamara Kinsolving, 1
WILKES, 1
Farmer John, 1
Bryce Bell, 1
Bell, 1
Thomas Hardy, 1
Lorelei, 1
Bossie No, 1
Now Paul, 1
Andy Pomeroy, 1
Annie ” Paul, 1
Bully, 1
Kirk , 1
Madame Curie, 1
Scott Fitzgerald, 1
Ernest Hemingway, 1
Faulkner, 1
Annie … Annie, 1
Annie Annie oh Annie, 1
Annie I, 1
ANNIE OH, 1
Eileen, 1
Paul It, 1
Baron Heidzig, 1
Longhand, 1
Thomas Szasz, 1
William Faulkner, 1
Ted Nugent, 1
Oliver Reed, 1
David Cronenberg, 1
Reed, 1
Rolaid, 1
De Mille, 1
Jacksons, 1
Nancy Whoremonger, 1
Arthur Conan Doyle, 1
Doyle, 1
Holmes, 1
Nicolas Freeling, 1
Garp, 1
William Golding, 1
Lord of the Flies, 1
Little Dorrit, 1
Oliver Twist, 1
Galsworthy, 1
Faverey, 1
McKibbon, 1
Lawnboy, 1
Harry, 1
Uhuh, 1
Naughty Annie, 1
Nasty Annie, 1
Bullshit, 1
Elvis Presley, 1
Poof, 1
AnniefuckinWilkes, 1
Ernie Gonyar, 1
Mailer, 1
Cheever, 1
FastLite, 1
Geoffrey s, 1
Chibi “ Beautiful One, 1
Guy Fawkes, 1
Boss Ge ff y Hezekiah, 1
Mutt, 1
Jeff, 1
Howdy, 1
Oh God , 1
John O, 1
Jesus Johnnycake Christ, 1
Annie Wilkes The Sidewinder, 1
Fuck, 1
Dartmonger, 1
Niobe, 1
Mistuh Boss Ian, 1
Shhhhh , 1
Boos Geoffrey, 1
HANNIBAL, 1
Lees, 1
PAUL, 1
Mumpf  Mark  Mark , 1
Eke, 1
Swee ” Pea, 1
Durd , 1
BIRT, 1
John the Baptist, 1
Monte Cristo, 1
Thank God, 1
Good Christ, 1
Gwendolyn Chastain, 1
Ian ” Hezekiah, 1
Boss Ian ” Hezekiah, 1
Camel, 1
Shit , 1
Muzak, 1
Webster, 1
Cain, 1
Dumpster, 1
Sonny, 1
Eddie Desmond, 1
Eddie, 1