Jane, 876
Jane Eyre, 296
Brontë, 224
Bertha, 149
John, 106
Charlotte Brontë, 83
God, 50
Rochester, 43
Reed, 33
Thornﬁeld, 29
Brocklehurst, 28
III, 28
Gilbert, 27
Helen, 27
Martyn, 27
Blanche, 24
John Reed, 21
Chaucer, 21
Sandra M, 17
Crimsworth, 17
Susan Meyer, 17
John Rivers, 17
Sally Shuttleworth, 16
Spivak, 16
Miss Temple, 15
Byron, 14
Charlotte, 14
Thackeray, 14
Jane Eyre’, 13
George Eliot, 12
Blanche Ingram, 12
Christ, 12
James Buzard, 12
Gubar, 11
Jane ’s, 11
Wife, 11
Caroline, 10
Williams, 10
Susan Gubar, 10
Combe, 10
Ferrier, 10
Eliza, 10
Helen Burns, 10
Bessie, 9
Oliphant, 9
Cinderella, 9
Henry Martyn, 9
Paul, 8
Matilda, 8
Susan Ostrov Weisser, 8
Lady, 8
Marianne Thormählen, 8
Scott, 8
Showalter, 7
Achan, 7
Clarissa, 7
Adèle, 7
Jesus, 7
John ’s Way, 7
Heather Glen, 7
Agnes, 7
Richardson, 6
Grace Poole, 6
Pamela, 6
Lucy Snowe, 6
Bertha Mason, 6
Adrienne Rich, 6
Nudd, 6
Bluebeard, 6
Gay, 6
Jerome Beaty, 6
Patrick Brontë, 6
Martin, 6
Warren Edminster, 6
Agnes Grey, 6
Caroline Vernon, 5
Heathcliff, 5
Bertha Rochester, 5
Mason, 5
Rivers, 5
Elaine Showalter, 5
Margaret Smith, 5
Blackwood, 5
Richard Mason, 5
Ohmann, 5
Norton, 5
Brainerd, 5
Anne Brontë, 5
Nussey, 5
Wuthering Heights, 4
Freud, 4
Catherine Earnshaw, 4
Heaven, 4
Signiﬁcantly, 4
Esther, 4
Lucy, 4
Matthew, 4
Shirley, 4
Matilda Fitzgibbon, 4
Webb, 4
Lady Ingram, 4
Diana, 4
Sharpe, 4
Emily, 4
Zamorna, 4
Cathy, 4
Joan Fontaine, 4
Susan, 4
Lerner, 4
Celine, 4
Edward Rochester, 4
Tristan, 4
Isolde, 4
Wagner, 4
Simeon, 4
Beaty, 4
John Rivers’, 4
Bakhtin, 4
Jane Rochester’, 4
Harold Bloom, 3
Lord Byron, 3
Turk, 3
Schopenhauer, 3
Hardy, 3
Lawrence, 3
Don Juan, 3
Edward, 3
James Kay Shuttleworth, 3
Elizabeth Rigby, 3
John Reid, 3
Grace, 3
Symington, 3
Mary Poovey, 3
Karen Chase, 3
Charles Dickens, 3
Conolly, 3
Meyer, 3
Ellen Nussey, 3
Joshua, 3
Harriet Martineau, 3
Ellin, 3
Bertha Mason Rochester, 3
Leavis, 3
Terry Eagleton, 3
Politi, 3
Eyre, 3
Carolyn Williams, 3
Herbert Rosengarten, 3
Patricia Beer, 3
Ratchford, 3
Gerin, 3
Helene Moglen, 3
Emily Dickinson, 3
Susanna, 3
Woman’, 3
Plath, 3
Dickinson, 3
Stevenson, 3
Rosamund Oliver, 3
Judith Williams, 3
Jesus Christ, 3
David Brainerd, 3
Janes, 3
Dostoevsky, 3
Adam, 3
Coleridge, 3
Shakespeare, 3
Noah, 3
Peter Beidler, 3
George Gordon, 2
Anne, 2
Dorothea Brooke, 2
Henry James, 2
Shelley, 2
Samson, 2
Milton, 2
Jane Eyre Brontë, 2
Margot Peters, 2
Hannah, 2
Rigby, 2
Fairfax, 2
Laycock, 2
Vashti, 2
Esquirol, 2
Lord Jesus’, 2
Sandra Gilbert, 2
Jane Jack, 2
Jeanne Peterson, 2
Peter Stallybrass, 2
Allon White, 2
George Combe, 2
John Anderson, 2
Forbes, 2
Tweedie, 2
Susan Fraiman, 2
Kegan Paul, 2
Rigney, 2
Hunt, 2
Gall, 2
Louis Moore, 2
Monk Lewis, 2
Frances, 2
Emma, 2
John Malcolm Forbes Ludlow, 2
Creole, 2
Jina Politi, 2
Kathryn Sutherland, 2
Carol Ohmann, 2
Igor Webb, 2
Brahma, 2
Juggernaut, 2
Robert Knox, 2
Morton, 2
Mary, 2
Charles White, 2
David Hume, 2
Richard J, 2
Dunn, 2
Gordon, 2
Parry, 2
Michael Craton, 2
Dingley, 2
Jane Austen, 2
Bhabha, 2
JanMohamed, 2
Knopf, 2
Cuvier, 2
Michie, 2
David Bromwich, 2
Miller, 2
Emily Brontë, 2
Matthew Arnold, 2
Helen Burns’, 2
Georgiana, 2
Miss Oliver, 2
Winifred Gerin, 2
Russell, 2
Dianne Sadoff, 2
Richard Chase, 2
Pat MacPherson, 2
Orson Welles, 2
Fontaine, 2
Sylvia Plath, 2
Man, 2
Dworkin, 2
Heger, 2
Victoria, 2
Eden, 2
Stanton, 2
Rosamond Oliver, 2
Welles, 2
Rachel Blau Du Plessis, 2
Donaldson, 2
Perera, 2
Young, 2
Bataille, 2
Ellis, 2
Kate, 2
Peter, 2
Richard, 2
Robert, 2
Mary Taylor, 2
Bunyan, 2
Mr Greatheart, 2
Henry Venn, 2
Maurice, 2
Mark, 2
Pagan, 2
Isaiah, 2
John Sargent, 2
John , 2
II, 2
John Maynard, 2
Phillips, 2
Barker, 2
Henry Martyn’, 2
Lowood, 2
Marianne Farningham, 2
William Landels, 2
Dickens, 2
Missis, 2
Lord Charles Wellesley, 2
Maurice Friedman, 2
Ruskin, 2
Geoffrey Chaucer, 2
Brewer, 2
Spurgeon, 2
Tale, 2
Robert Martin, 2
Maynard, 2
Chandler, 2
Gaskell, 2
Alexander Pope, 2
Thomas M’Lean, 2
Therese Decker, 2
Friars, 2
Preste, 2
Ne Monke, 2
Ne Yit Chanoun, 2
Dalton, 2
Gower, 2
Moglen, 2
Defoe, 2
Weston, 2
Betty, 2
Foucault, 2
Bewick, 2
Wordsworth, 2
Duke, 1
Montmorency, 1
Nelson Algren, 1
Hemingway, 1
Norman Mailer, 1
Gore Vidal, 1
Emily Jane, 1
Noble Lord, 1
Clarissa Harlowe, 1
Austen, 1
Emma Woodhouse, 1
Fanny Price, 1
Isabel Archer, 1
Tess, 1
Eustacia Vye, 1
Gudrun, 1
Ursula, 1
Samson Agonistes, 1
Sylvère Monod, 1
Byronic Rochester, 1
Lara, 1
Manfred, 1
Jane’, 1
Bentham, 1
Lucia, 1
Sally Shuttleworth Georget, 1
Locke, 1
Nature’, 1
Kristeva, 1
Rochester Jane Eyre, 1
Lurid Hieroglyphics, 1
Macbeth, 1
Creole’, 1
Bessie Leaven, 1
Blanche’, 1
Ahasuerus, 1
Spurzheim, 1
James Ferrier, 1
St John the Divine, 1
Bertha’, 1
Victor, 1
Basil Blackwell, 1
Georges Canguilhem, 1
Shannon, 1
John Conolly, 1
Thomas Laycock, 1
Nancy Stepan, 1
Michel Foucault, 1
Hurley, 1
Penny Boumelha, 1
Sue Roe, 1
Shuttleworth, 1
Maxine Berg, 1
Miriam Allott, 1
Kay Shuttleworth, 1
Madwoman, 1
Julia Kristeva, 1
Jean Rhys’, 1
Philip Martin, 1
Hermione Lee, 1
Hafner, 1
Prichard, 1
James Cowle Prichard, 1
Nancy Armstrong, 1
Sander L, 1
Gilman, 1
Fraiman, 1
Kucich, 1
Jason Y, 1
VI, 1
William Blackwood, 1
Edward Fairfax Rochester, 1
Shoshana Felman, 1
SUSAN MEYER, 1
William Crimsworth, 1
Maroon, 1
Frances Henri, 1
Hunsden, 1
Othello, 1
Desdemona, 1
Miss Matilda, 1
Gayatri Spivak, 1
Jean Rhys, 1
Jonas Mason, 1
Antoinetta, 1
Quashia, 1
II Brontë, 1
Quashia Quamina, 1
Eagleton, 1
Leah, 1
Gibbon, 1
Miss Ingram, 1
Reeds, 1
Janet, 1
Quiescent, 1
Hume, 1
Grace Poolen, 1
Ferndean, 1
John Eyre, 1
Matthew Lewis, 1
John Murray, 1
Demerara, 1
Charles Fox, 1
Christine Alexander, 1
Reckord, 1
Macmillan, 1
Sherlock, 1
Smith, 1
Rosengarten, 1
Gayatri Chakravorty Spivak, 1
Susan Meyer Jane, 1
Elizabeth Gaskell, 1
Jonathan Arac, 1
Harriet Ritvo, 1
Jenny Sharpe, 1
Elsie Michie, 1
Suvendrini Perera, 1
Homi Bhabha, 1
Homi K, 1
Abdul R, 1
Edward Said, 1
Winthrop Jordan, 1
Christopher Miller, 1
Blank Darkness, 1
ELH, 1
Sutherland, 1
Patricia Meyer Spacks, 1
Rich, 1
Kurtz, 1
Patrick Brantlinger, 1
Brantlinger, 1
Katherine Snyder, 1
Dilly, 1
Samuel Cartwright, 1
Eric L, 1
McKitrick, 1
Leonore Davidoff, 1
Munby, 1
Hannah Cullwick, 1
Judith L, 1
Mary P, 1
Susan Meyer Ryan, 1
Judith R, 1
Walkowitz, 1
Routledge, 1
Francis G, 1
Hutchins, 1
John  Spivak, 1
Parama Roy, 1
Zachary Macaulay, 1
Jerome J, 1
McGann, 1
Roy, 1
Eugene F, 1
John Cleland, 1
Fanny Hill, 1
Desire, 1
Miss Lester, 1
Miss Marriott, 1
Ellen Cook, 1
Susan Ostrov Weisser She, 1
Caroline Vernon’, 1
Will, 1
Miss Scatchard, 1
Hush Jane, 1
Georgiana Reed, 1
Ladyhood, 1
Susan Ostrov, 1
Thomﬁeld, 1
Moral Femininity, 1
Angel, 1
Eliza Reed, 1
Me, 1
Austen ’s Fanny, 1
Fannie Ratchford, 1
Thomas Wise, 1
Wise, 1
Nancy Pell, 1
Martha Vicinus, 1
Richard Feldstein, 1
Judith Roof, 1
John Kucich, 1
Janice Radway, 1
Nancy Chodorow, 1
Michelle A, 1
Masse, 1
Jean Kennard, 1
Daleski, 1
Holmes, 1
Meier, 1
Carolyn Heilbrun, 1
Maurianne Adams, 1
Diamond, 1
Lee R, 1
Edwards, 1
Rachel Brownstein, 1
Becoming a Heroine, 1
Shirley Foster, 1
Rosemarie Bodenheimer, 1
Bhaer, 1
Emerson, 1
Jo, 1
Katharine Hepburn, 1
Laurence Olivier, 1
Merle Oberon, 1
Jo March, 1
Aunt Reed, 1
Thrushcross Grange, 1
Thornﬁeld Hall, 1
Bliss, 1
Arnold, 1
Anne Mozley, 1
Margaret Oliphant, 1
Erica Jong, 1
Kate Millett, 1
Diane Wakoski, 1
Andrea Dworkin, 1
George Sand, 1
Nancy Miller, 1
Tomkins, 1
Judith Fetterley, 1
Mary Oliphant, 1
Mary Wollstonecraft, 1
Samuel Richardson, 1
Anne Radcliffe, 1
CINDERELLA, 1
Prince Charming, 1
Charming, 1
Sullivan, 1
Ida, 1
Speciﬁcally, 1
William Acton, 1
Peter Gay, 1
Mabel Loomis Todd, 1
Austin, 1
Todd, 1
Matthews Duncan, 1
Elizabeth Cady Stanton, 1
Reverend Wood, 1
Master Reed, 1
Gilbert Mason, 1
Gilbert Throughout, 1
Amen, 1
Mademoiselle, 1
Ohne Nennen, 1
ohne Trennen, 1
George Stevenson, 1
Franco Zeffirelli, 1
Zeffirelli, 1
Charlotte Gainsbourg, 1
William Hurt, 1
Ruth, 1
Wilella Waldorf, 1
Bret Harte, 1
Rawjester, 1
David, 1
Kaplan, 1
Georges, 1
Mary Dalwood, 1
David  Deirdre, 1
Thomas H, 1
Johnson, 1
Laura E, 1
Du Plessis, 1
Rachel Blau, 1
Romantic Thralldom, 1
Susan Stanford Friedman, 1
Andrea, 1
Ann Kaplan, 1
Michael Klein, 1
Gillian Parker, 1
Frederick Ungar, 1
Fetterley, 1
Judith, 1
Plain Jane, 1
Harte, 1
Bret, 1
Miss Mix, 1
Chltte Brnte, 1
Jong, 1
Erica, 1
Laurence, 1
Edward Arnold, 1
Nancy K, 1
Millett, 1
Mozley, 1
Donna Marie, 1
Diane Long Hoeveler, 1
Beth Lau, 1
Margaret, 1
Suvendrini, 1
Sylvia, 1
Daddy, 1
Adrienne, 1
Jenny, 1
Elaine, 1
Gayatri Chakravorty, 1
Stoneman, 1
Patsy, 1
Stewart Robb, 1
Schirmer, 1
MARIANNE THORMÄHLEN, 1
Laurence Lerner, 1
Burns, 1
Mr Rivers, 1
Elisabeth Jay, 1
Diana Rivers, 1
God’, 1
S T J O H N R I, 1
E R S ’ Brontë, 1
Thomas à Kempis, 1
Jesus’, 1
Wilberforce, 1
Marianne Thormählen John, 1
Inasmuch, 1
Christiana, 1
Uncle Eyre, 1
Maria Branwell, 1
Charles Simeon, 1
Simeon ’s, 1
Martyn ’s, 1
Ecclesiastes, 1
Come, 1
JANE EYRE, 1
Come’, 1
Janet Gezari, 1
Empson, 1
Phil, 1
Barry Qualls, 1
Marianne Thormählen John ’s, 1
I Sam, 1
Catherine ’s, 1
Helen Huntingdon, 1
Elizabeth Imlay, 1
Joan Stevens, 1
Myer, 1
Jay, 1
Pollard, 1
Salome, 1
Keefe, 1
Thomas Arnold, 1
Josiah Pratt, 1
Branwell, 1
Robert G, 1
Charmian Knight, 1
John Malcolm, 1
See Imlay, 1
See Hopkins, 1
Lock and Dixon, 1
A Man of Sorrow, 1
Richard T, 1
See Phillips, 1
Tom Winnifrith, 1
James Stephen, 1
Stephen, 1
Twenty Sermons, 1
Pratt, 1
Sargent, 1
Carus Wilson, 1
Annette Tromly, 1
Grimshaw, 1
Haworth, 1
Aunt Branwell, 1
William Makepeace Thackeray, 1
Gordon N, 1
William Smith Williams, 1
Henceforward I, 1
Rosamond, 1
Angels, 1
John —, 1
John ’s, 1
Silas, 1
Jerome Beaty Jane, 1
Jane  Jane  Jane , 1
Fate, 1
Jane ’s “ Master, 1
John the Divine, 1
Peter J, 1
Rabinowitz, 1
Mikhail Bakhtin, 1
Meir Sternberg, 1
Edward Crimsworth, 1
Charity’, 1
Eshton, 1
Necessity’, 1
Woman, 1
Canto II, 1
Heather Glen My, 1
David Copperﬁeld, 1
Maggie Tulliver, 1
Amy Dorrit, 1
All, 1
Miss Temple’, 1
Brocklehurst’, 1
Little Adèle, 1
Jane Rochester, 1
Georgiana Reed’, 1
Abigail, 1
Mr Brocklehurst, 1
Strange Events’, 1
Heather Glen Brocklehurst, 1
Miss Reed, 1
Miss Georgiana, 1
Reason, 1
Feeling, 1
St John Rivers, 1
Heather Glen For, 1
I’, 1
James Clarke, 1
James Nisbet, 1
William Mudford, 1
Tompkins, 1
Iron Shroud, 1
Jane Eyre I, 1
Martin Buber, 1
Virgil, 1
Tennyson, 1
Carlyle, 1
Morris, 1
Tyrwhitt, 1
John Bell, 1
Blake, 1
Lamb, 1
Southey, 1
Wordsworths, 1
Landor, 1
Hazlitt, 1
Caroline Spurgeon, 1
Ellen Recurrent Patterns, 1
Pope, 1
Bath, 1
Johns of Jane, 1
Gulliver, 1
Arthur, 1
Allas, 1
Constreyned, 1
Warren Edminster the Wife, 1
Hitherto I, 1
Cindy Burgess, 1
Cecilia Chaumpaigne, 1
Cecilia, 1
Briar Rose, 1
Rapunzel, 1
Friar, 1
Gawain, 1
Dame Ragnell, 1
Edward Vasta, 1
Elaine Turtle Hansen, 1
Beidler, 1
Derek, 1
Buber, 1
Alice, 1
Chase, 1
Geoffrey, 1
Cawley, 1
Alfred A, 1
Drie Daghe Here, 1
Warren Edminster Gerin, 1
Winifred, 1
Hansen, 1
Elaine Tuttle, 1
MacPherson, 1
Pat, 1
Mosaic, 1
Helene, 1
Alexander, 1
James M, 1
Dean, 1
Vasta, 1
Exemplaria, 1
JAMES BUZARD, 1
Daniel Defoe, 1
Jane Eyre2 I R, 1
Eire, 1
Erin, 1
Clara, 1
TullyVeolan, 1
Baron, 1
Bradwardine, 1
Waverley, 1
Fergus MacIvor, 1
Hegel, 1
Christine Froula, 1
Rob Roy, 1
de l’escalier, 1
Rosalie, 1
Rosalie Murray, 1
Jane Elliott, 1
Blanche Ingram Jane, 1
Dionysius O’Gall, 1
Joseph de Maistre, 1
Jane the, 1
GatesheadJane, 1
JE, 1
Burke, 1
John Jarndyce, 1
Mary Rivers, 1
Rosamund, 1