Doc, 586
Hymie, 348
Peekay, 302
Hoppie, 276
Geel Piet, 181
Smit, 170
Boxall, 142
Mevrou, 121
Gert, 110
Klipkop, 107
Big Hettie, 106
Borman, 85
Marie, 84
Miss Bornstein, 81
Granpa Chook, 79
Dee, 68
Rasputin, 68
Nanny, 63
God, 59
Singe ’n Burn, 54
Nguni, 50
Solly, 47
Lord, 42
Jackhammer Smit, 42
Jackhammer, 42
Pik Botha, 41
Christ, 41
Geldenhuis, 41
Kommandant, 40
Dum, 39
InkosiInkosikazi, 34
Sarge, 33
Jesus, 31
Hettie, 30
Adolf Hitler, 29
Hoppie Groenewald, 29
Gideon, 28
Snotnose, 27
Pastor Mulvery, 26
Levy, 25
Pisskop, 24
Harry Crown, 24
Lieutenant Smit, 24
Thomas, 24
Bokkie, 23
Granpa, 22
Mandoma, 22
Steinway, 21
Swanepoel, 21
Killer Kroon, 20
Darby White, 20
Atherton, 20
Mevrou Hettie, 19
Hitler, 18
Hennie Venter, 18
Mrs Boxall, 18
Andrews, 18
Gideon Mandoma, 18
Boers, 17
Patel, 16
Meneer de Klerk, 16
Okay, 15
Meneer, 15
Nels, 15
Solly Goldman, 15
Von Vollensteen, 15
Kroon, 15
Miss du Plessis, 13
Judge, 13
Bokkie de Beer, 13
Bornstein, 13
Captain Smit, 13
Jannie Geldenhuis, 13
Doris, 13
Botha, 13
Stoffel, 12
Boer, 12
Helpmekaar, 12
Hennie, 11
Mulvery, 11
Charlie, 11
Kommandant Van Zyl, 11
CunningSpider, 11
Mango, 11
Inkosi, 11
Henny, 10
Chopin, 10
Beethoven, 10
Onoshobishobi Ingelosi, 10
Pissy Johnson, 10
Cooper, 10
Darby, 10
Fritz, 10
Danie Coetzee, 9
C’mon, 9
Kid Louis, 9
Him, 9
Johnnie Walker, 9
Fonnie Kruger, 9
Du Toit, 9
Elijah, 9
Mr Bornstein, 9
Jannie, 9
Mango Cobett, 9
Hankin, 8
Sinjun, 8
Fritz Three, 8
Kaffir, 7
Shit, 7
Snotnose Bronkhorst, 7
Potgieter, 7
Hymie Levy, 7
Zoran, 7
Rooinek, 6
Groenewald, 6
Mother, 6
Goodness, 6
Sam Browne, 6
Oudendaal, 6
Magtig, 6
Kostler, 6
Heil Hitler , 5
Boere, 5
Joe Louis, 5
Sorry, 5
Brahms, 5
Jesus Christ, 5
George, 5
Geoffrey Scruby, 5
Mozart, 5
Tchaikovsky, 5
Byron, 5
CunninghamRyder, 5
Lord Cardigan, 5
Lord Raglan, 5
Natkin Patel, 5
Jones, 5
Kom, 4
Zulu, 4
Gerber, 4
Orright, 4
Kaffirs, 4
Vaseline, 4
David, 4
Hallelujah, 4
Joseph Rogers, 4
Karl Von Vollensteen, 4
Madame Boxall, 4
Simpson, 4
Georgie, 4
O’GradySmith, 4
Hopkins, 4
Fonnie, 4
Bolter, 4
Fred Cooper, 4
Hymie Solomon Levy, 4
Menshikov, 4
Rhodes, 4
Ichabod Crane, 4
Danie, 4
McCormack, 4
Dingaan, 3
Flaplips de Jaager, 3
Boetie Van der Merwe, 3
Kom , 3
Goodbye, 3
Hello, 3
Me, 3
Moses, 3
Dear Peekay, 3
Meneer Botha, 3
Meneer Venter, 3
Absoloodle, 3
Lourenço Marques, 3
Doc I, 3
Bach, 3
Sister, 3
Georgie Hankin, 3
Isaac, 3
de Villiers, 3
John Hopkins, 3
Maatie Snyman, 3
Nels Stekhoven, 3
Wagner, 3
Madam Boxall, 3
Fanagalo, 3
Strauss, 3
McClymont, 3
Howzit, 3
Major Bolter, 3
Johnson, 3
Arthur, 3
Old Jimbo, 3
Onoshobishobi Ingelosi , 3
SchmartyPantz, 3
Cetshwayo, 3
Johnny Ralph, 3
Captain Swanepoel, 3
Stonehouse, 3
Fritzs, 3
Fats Greer, 3
Ruski, 3
Mickey, 3
Mevrou , 2
Hell, 2
Mpande, 2
Modjadji, 2
Vorster, 2
Coetzee, 2
Kaffir Chicken Rooinek, 2
Run, 2
Jaapie Botha, 2
Green, 2
Kid Peekay, 2
blêrrie Rooinek, 2
Meneer Kid Louis, 2
Mister, 2
Jack Sharkey, 2
Joe, 2
Goliath, 2
Johnny, 2
Kid, 2
Dankie, 2
Pride, 2
Sadness, 2
Charles Dickens, 2
Butt, 2
Richard, 2
Heaven, 2
Doc , 2
Cameron, 2
Madame, 2
Fiona Boxall’, 2
Jerry, 2
Jerry , 2
Meneer Oudendaal, 2
Meneer Van Zyl, 2
Yessir, 2
Van Zyl, 2
Artur Rubinstein, 2
Gert Marais, 2
Bronkhorst, 2
Scruby, 2
Tadpole Angel, 2
Donkey Prick, 2
Gentleman Peekay, 2
Mrs Kostler, 2
Sam, 2
Madame Bornstein, 2
Jimmy Winter, 2
Isaac Bornstein, 2
Old Mr Bornstein, 2
Dingane, 2
Tsonga, 2
Pinkie Borman, 2
Duncan, 2
Dames, 2
Brigadier Joubert, 2
Joubert, 2
Shaka, 2
Mignon, 2
Paul, 2
Ovid, 2
John Orrs, 2
Paul Atherton, 2
Bullshit, 2
Holland, 2
Sophie Smit, 2
Sophie, 2
John Burnham MA, 2
Ferchrissake, 2
King Georgies, 2
Handy, 2
Merlin, 2
Goldman, 2
Ingelosi, 2
Miss Perkins, 2
Jewboy, 2
Bravo, 2
Gareth Jones, 2
Fritz One, 2
Mickey Spillane, 2
Henny’ Boshoff, 1
Shangaans, 1
Tonight InkosiInkosikazi, 1
Young Lennie, 1
Pisskop the Rooinek, 1
Flaplips’ de Jaager, 1
’ Flaplips de Jaager, 1
Squawk’, 1
Neville Chamberlain, 1
Herr Hitler, 1
Heil Hitler’, 1
Domkop, 1
Lazarus, 1
Domkop , 1
Fear, 1
Maatie de Jaager, 1
A Boer, 1
Jy, 1
Heil Hitlering, 1
Timekeeper, 1
Tallyman, 1
Van de Merwe, 1
‘ Kaffirs, 1
War Pisskop, 1
Stormtrooper Van der Merwe, 1
Mevrou kan gaan kak , 1
Mrs Vorster, 1
Crown, 1
Walk, 1
Peekay  Ja, 1
Groot Constantia, 1
Anna, 1
Humph, 1
Grease Monkeys’, 1
Tackies, 1
Sixpence, 1
Joe ’s, 1
Sharkey, 1
Kid Louis’, 1
Nels’, 1
Jackhammers’, 1
Dammit, 1
Sparrow Fart, 1
Sweet Jesus, 1
M’dear, 1
Hettie I, 1
Snort, 1
Grimacing, 1
Tarzan, 1
Lord’, 1
Nee, 1
Van Leemin, 1
Soon, 1
McClymonts, 1
Pik, 1
Alice, 1
Dick, 1
Mrs Butt, 1
Lad , 1
Mevrou Vorster, 1
Goot, 1
Honest, 1
Peekay I, 1
Just Peekay, 1
Inkosikaan, 1
Frans Hals, 1
Laughing Cavalier, 1
Almighty, 1
Dad, 1
Old Pisskop, 1
David ’s, 1
Man, 1
Brevifolia, 1
Ballet, 1
Gilbert, 1
Sullivan, 1
White Cliffs’, 1
White Cliffs, 1
Doctor Bottle’, 1
Senecio, 1
Greeta Garbo, 1
Lekker, 1
Sister I, 1
Hallelujahs’, 1
Amen, 1
Redeemer, 1
William, 1
Richmal Crompton, 1
William Barton, 1
Like Doc, 1
Jerries, 1
Abraham, 1
Chin, 1
Winston Churchill, 1
Fiona Boxall, 1
Miss Florence Nightingale, 1
Mr Andrews, 1
ELEVEN Doc, 1
Kommandant Jaapie Van Zyl, 1
Colonel de Villiers, 1
Totsiens, 1
Wait, 1
Klipkop’, 1
Johannes Oudendaal, 1
Ag ja, 1
Paul Kruger, 1
Magtig , 1
Meneer Smit, 1
Kitchens, 1
Mr Oudendaal, 1
Johnnie Walker Scotch, 1
Barbara, 1
Fred Astaire, 1
Bojangles, 1
Goeie Môre, 1
Baas, 1
Klein Baas, 1
Rooineks, 1
Shurrup, 1
Then Peekay, 1
Dear Husband, 1
Mafuni Tokasi, 1
Earl of Sandwich, 1
Angel’, 1
Donkey Prick’, 1
Tadpole’, 1
Angel’ I, 1
Amasele, 1
Cinderella, 1
Kaffir , 1
baas, 1
Jump, 1
Tchtch, 1
Boy, 1
Martinus Kroon, 1
Mister Schmarty Pantz , 1
Maatie, 1
Zoe Prinsloo, 1
Zoe, 1
Lamb, 1
Ruth, 1
Joshua, 1
Sinner, 1
Christwise, 1
Marie ’s, 1
Wragdig, 1
blêrrie Kaffir , 1
Doc Mrs Boxall, 1
Lenchinakov, 1
Arnold Green, 1
Miss, 1
Samantha Bornstein, 1
inkosi, 1
Sergeant Borman, 1
Schmarty Pantz Isaac , 1
Frauleins, 1
Herr Isaac, 1
Bornsteins, 1
Piet Retief, 1
Herod, 1
Killer Kroon I, 1
Stan’, 1
Klavier Meister Chopin, 1
Herr Beethoven, 1
Haydn, 1
Liszt, 1
Phew , 1
Dali, 1
Shhhh, 1
Goodhead, 1
Aloe, 1
Roses, 1
Murder da bum, 1
Jolly, 1
Smith, 1
’ Klipkop, 1
Let Smit, 1
Jus’, 1
You Kaffirboetie, 1
Jove, 1
Missis, 1
Umbela, 1
Mfulu I, 1
Mauser, 1
Husband, 1
Daniel Mafutu, 1
King Georgies’, 1
Georgies, 1
Cicero, 1
Caesar, 1
Virgil, 1
Wordsworth, 1
Masefield, 1
Keats, 1
Tennyson, 1
Walter de la Mare, 1
Goethe, 1
Davis, 1
Jazz, 1
Jesus Peekay, 1
Charles Atlas, 1
Hymie … Hymie Levy, 1
Solomon, 1
Righto, 1
Mrs Bolter, 1
Gawd  Sarge, 1
’ de la Cour, 1
Atherton , 1
George Andrew Sebastian, 1
Mr Peekay, 1
Johnson , 1
Pissy’ Johnson, 1
CunningSpider’, 1
Aha, 1
Yeah, 1
Gee, 1
Meneer Geel Piet, 1
Life, 1
George the Sixth, 1
Derek, 1
Brian, 1
Chrissake, 1
Danny Polkinhorne, 1
Rothschild, 1
Onoshobishobi Ingelosi  Onoshobishobi Ingelosi , 1
Mama, 1
Vargas, 1
Mango’ Cobett, 1
William Blackwood, 1
Sons, 1
Kinglake, 1
Raglan, 1
Levy , 1
Hemming, 1
Kant, 1
Spinoza, 1
Dachau, 1
Treblinka, 1
Belsen, 1
John Burnham, 1
Sinjun ’s People’, 1
Billy Bunter, 1
Rudyard Kipling, 1
Levy H, 1
Lyell H, 1
Quigley, 1
Minnaar J, 1
Eliastam, 1
Barberton, 1
Yehudi Menuhin, 1
Jaapie, 1
Mollip, 1
Muddleup, 1
Errol Garner, 1
Okeydokey, 1
Willie Smith, 1
Willie Smith , 1
Paul Everingham, 1
Bob Goodhead, 1
Puberty, 1
Pissy, 1
Shake, 1
Hugh Lyell, 1
Jean Minnaar, 1
Greed, 1
Geldenhius, 1
Parker, 1
Christ Hymie, 1
Brave’, 1
Lyell, 1
Kruger, 1
Marie , 1
Elizabeth, 1
Lutuli, 1
Monty Naicker, 1
Gawd, 1
I am Peekay, 1
Howzit , 1
Mary Mandoma, 1
Nkosi Sikelel’ i Afrika’, 1
Ingelosi’, 1
Lemme, 1
Blessed, 1
Wilfred Owen, 1
Rupert Brooke, 1
Frensman, 1
Kaapmuiden, 1
Karl Marx, 1
Mary, 1
Jefferson, 1
Singe, 1
Othello, 1
Kaffirboetie, 1
Ichabod, 1
Lord Byron, 1
Lewis, 1
‘ Peekay’, 1
Fisher, 1
Jessie, 1
Doris Engelbrecht , 1
Cripes, 1
Dai Thomas, 1
Thomas’, 1
Fritz Two, 1
Professor Peekay, 1
Smell, 1
Roosha, 1
Tonight Rooshan, 1
Boldness, 1
Robinson Crusoe, 1
Mick Spilleen, 1
Peekay  Rasputin, 1
Zoran the Yugo I, 1
Okey, 1
Botha  Botha, 1
Shit Fritz, 1
Goya, 1
Granpa Chook , 1
Joseph Rogers I, 1