Angie, 560
Broussard, 557
Poole, 382
Helene, 250
Amanda, 173
Lionel, 161
Bubba, 152
Beatrice, 104
Cheese, 102
Mullen, 100
Amanda McCready, 73
Doyle, 72
Patrick, 70
Ryerson, 66
Oscar, 59
Devin, 58
Gutierrez, 58
Kenzie, 49
Yeah, 46
God, 40
Dottie, 38
Big Dave, 38
Roberta, 38
Leon, 35
Chris Mullen, 35
Ray, 27
Helene McCready, 25
Cheese Olamon, 25
Popeye, 25
Corwin Earle, 24
Dempsey, 24
Casper, 24
Kimmie, 23
Pasquale, 23
Pharaoh, 23
Miss Gennaro, 21
Roberta Trett, 21
Rachel, 20
McCready, 20
Matt, 18
Miss McCready, 18
Samuel Pietro, 18
Dave, 16
Gerry, 16
Christ, 16
Lenny, 15
Remy Broussard, 14
Okay, 13
Remy, 13
Corwin, 13
Gordon, 13
Wee David, 13
Olamon, 13
Pharaoh Gutierrez, 13
Tricia Doyle, 13
Ray Likanski, 12
Jack Doyle, 11
Gert, 11
Neal Ryerson, 11
Gerry Glynn, 10
Detective Broussard, 10
Ange, 10
Trett, 10
Tricia, 9
Leon Trett, 9
Quincy, 9
Jimmy Paxton, 9
Shit, 8
Miller, 8
Likanski, 8
Tanya, 8
Chris, 8
Jack Rouse, 8
Jesus, 8
Lionel ’s, 7
Helene , 7
Rogowski, 7
Stanley, 7
Lionel McCready, 6
Right, 6
Phil, 6
Wee Dave, 6
Kevin Hurlihy, 6
Cheswick, 6
Jack, 6
Dalton, 5
Honey, 5
Nick Raftopoulos, 5
Bobby Minton, 5
Tretts, 5
Sonya, 5
Major Dempsey, 5
Carlton, 5
Dalton Voy, 4
Beatrice McCready, 4
Shannon, 4
David, 4
Skinny Ray Likanski, 4
Gennaro, 4
Phil Dimassi, 4
Ma’am, 4
Mommy, 4
Hell, 4
Sssh, 4
Pat, 4
Raftopoulos, 4
Eugene, 4
Giggle Doc, 4
Ruprecht, 4
John Pasquale, 4
John Lawn, 4
HurtYous, 4
Ted Kenneally, 4
Campbell, 4
Rachel Smith, 3
Dottie Mahew, 3
Filmore, 3
“ Wait, 3
Patrick Kenzie, 3
Skipper, 3
Gilligan, 3
Big Dave Strand, 3
Skinny Ray, 3
Gee, 3
Oscar Lee, 3
Sergeant Raftopoulos, 3
Minton, 3
Earle, 3
Sonya Garabedian, 3
Kerry, 3
Frances, 3
Ange ” I, 3
Jimmy, 3
Gert Broderick, 3
Jesus Christ, 3
Bullshit, 3
Jerry Springer, 3
Me, 3
Jack Daniel, 3
Man, 3
Belker, 3
Eddie Bauer, 3
Detective Pasquale, 3
Vice, 3
Kimmie Niehaus, 3
Marion Socia, 3
Morrissey, 3
John Corkery, 3
Johns, 3
Corkery, 3
Edmund Fitzgerald, 3
Larry, 3
Goddamn, 2
Todd Morgan, 2
Lionel ” I, 2
Vinny, 2
Amelia Earhart, 2
Puffy, 2
McCreadys, 2
Hiya, 2
Pray, 2
David , 2
Woo, 2
Richie Colgan, 2
Colgan, 2
Dave Strand, 2
Frances Neagly, 2
Alec Hardiman, 2
Evandro, 2
Joel, 2
Gordon Taylor, 2
Tragic, 2
Sorta, 2
” Poole, 2
Fred Griffin, 2
Aramis, 2
Sorry, 2
Martin, 2
David Martin, 2
Damn, 2
Dunkin’ Donuts, 2
Jeannie Minnelli, 2
” Broussard, 2
Bart, 2
Alive, 2
Mike, 2
Oooh, 2
Halpern, 2
Socia, 2
Wait, 2
Nelson, 2
Brother Rogowski, 2
Smiths, 2
Paulie, 2
Gigi, 2
Pietro, 2
Glock, 2
Sweetie, 2
James Bond, 2
Lotta, 2
Carlton Volk, 2
Lionel , 2
Amronklin, 2
John, 2
John Vreeman, 2
Paxton, 2
Lee, 2
Neal, 2
Agent Ryerson, 2
Nicky, 2
Nicholas Broussard, 2
John Woo, 2
ADA Campbell, 2
Hartman, 2
Bobby Darin, 2
Sinatra, 2
Smith, 1
Rachel ’s, 1
Hayley, 1
John Salvi, 1
Sins, 1
Suzanne Somers, 1
Tony Curtis, 1
Chess King, 1
Has Helene, 1
Desiree Stone, 1
Annie, 1
So ” Doyle, 1
Gregor, 1
Head Sparks, 1
Magi, 1
Miss Perfect, 1
Helene McCready Life, 1
Great Victim, 1
Lee Marvin, 1
Or Eastwood, 1
Clint, 1
Howells, 1
Maryann, 1
Ginger, 1
Fine, 1
Van Damme, 1
Seagal, 1
Olivier, 1
Gielgud, 1
Piel, 1
Freaks, 1
Did Helene, 1
Jeez, 1
Pat Kenzie, 1
Glad, 1
Angela, 1
Tom Sawyer, 1
Bill Blass, 1
Florsheim, 1
Sugar Ray, 1
Would, 1
Wrigley, 1
Tried’, 1
Polygraph, 1
Bernard, 1
Good God, 1
Bunked, 1
Young, 1
Bobby, 1
Likanskis, 1
Bart ’s, 1
William ’s, 1
Anthony, 1
Andrea, 1
Run, 1
Eddie, 1
Aaron, 1
Miss Garabedian, 1
Matthew Hoagland, 1
Evandro Arujo, 1
Never Evandro, 1
Just Gerry, 1
Grace Cole, 1
Mae, 1
Joel Calzada, 1
Lionel McCreadyin, 1
Chatty Cathy, 1
Patience, 1
Tanya Biloskirka, 1
Tanya , 1
Dorchester, 1
Gordon , 1
Little Amanda , 1
Martha Torsney, 1
Martha , 1
Martha, 1
Lauren Smythe, 1
April Norton, 1
Susan Siersma, 1
Billy Boran, 1
Mike O’Connor, 1
Danielle Genter, 1
Babs Kerins, 1
Chris , 1
AMANDA, 1
Muling, 1
Uhhuh, 1
Rick Lembo, 1
Ricky the Dick ” Broussard, 1
Again Helene, 1
Liar, 1
Everett, 1
Or Everett, 1
Charlestown, 1
Garfield, 1
James A, 1
Garfields, 1
Winthrop, 1
Fred, 1
Diana, 1
Jeffrey, 1
Bloaters, 1
Old Spice, 1
Demerol, 1
Darvon, 1
Wee Dave Martin, 1
Jerry, 1
Smells, 1
Ho’, 1
Whoowhoo, 1
Alien, 1
Mickey, 1
Minnie , 1
Babe Ruth, 1
Swear, 1
Ray , 1
Quick, 1
Springer, 1
Geraldo, 1
Sally, 1
Wee Davidthey, 1
Kenzie , 1
Fred Williamson, 1
Antonio Fargas, 1
Carl Coxone, 1
Bubba Rogowski, 1
Wee David ’s, 1
Ours, 1
Jane Seymour, 1
Jo Jo McDaniel, 1
Daniel Caleb, 1
Kevin, 1
Kools, 1
Damn  ” Cheese, 1
Poole ” Cheese, 1
Motherfucker, 1
’Fraid, 1
Okeydokey, 1
Pity, 1
“ Stole, 1
“ Bullshit, 1
Y’all, 1
Dang, 1
Richard Roundtreewannabe, 1
Mark Fuhrman, 1
Kenzie  Huh, 1
Rem, 1
Glynn, 1
Hates, 1
Gotcha, 1
Don King, 1
Boy, 1
Anne Klein, 1
I’da, 1
Hugo Boss, 1
Geoffrey Beene, 1
Miss, 1
Alex, 1
Mister CuttotheChase, 1
Fuckhead, 1
Nah, 1
You Dorchester, 1
Scratch, 1
Father, 1
Nawlins, 1
Frankie O’Brien, 1
Frank, 1
Sean, 1
PHARO, 1
Lord High, 1
Clear, 1
Armani, 1
Carlos, 1
Shiv ” Orlando, 1
JJ MacNally, 1
Joel Green, 1
Hicky Vister, 1
Buddy Perry, 1
Brian Boxtwo, 1
James Caan, 1
Hello, 1
Lieutenant ” Poole, 1
Michael, 1
Daniel Guden, 1
Mark Leonard, 1
Rio Bravo, 1
Sergeant Poole, 1
Pat ” Doyle, 1
Patrick ” I, 1
Ruby Ridge, 1
Lieutenant Doyle, 1
Doyle ” Angie, 1
Then Bubba, 1
John Dempsey, 1
Sam Browne, 1
Penny Hardaway, 1
Myriad, 1
Kaboodle, 1
Maria Dykema, 1
Dykema, 1
Dean, 1
Gallagher, 1
Gleason, 1
Detective Gleason, 1
Walpole, 1
Jeremiah Johnson, 1
My God, 1
Shakespeare, 1
Grizzly Adams, 1
Wile E, 1
Coyote, 1
Bitch, 1
Ricciuti Drive, 1
Milton, 1
Swingle, 1
Quarry, 1
Schwarzenegger, 1
Shearson Lehman, 1
DA, 1
Doc Martens, 1
Relax, 1
JFK, 1
Color, 1
Acapulco ” Broussard, 1
Bright, 1
Woods, 1
Christ ” Poole, 1
Christ , 1
Patrick ” Bubba, 1
Pine, 1
Fat Freddy Constantine, 1
Patrick ” Cheese, 1
Fucking, 1
Twoomey, 1
Inmate Olamon, 1
Nelson Ferrare, 1
So Cheese, 1
Marlboros, 1
Peter Popovich, 1
Adam, 1
Lenny Likanski, 1
Chia, 1
Yardack, 1
Leslie, 1
Cousin Ray, 1
Jesus God, 1
God  Ray, 1
Coke, 1
Jimmy Suave, 1
Angie ’s, 1
Bubbawhich, 1
Suzanne Vega, 1
Natalie Merchant, 1
Gigi Varon, 1
Gigi  ” Bubba, 1
Carla Dooley, 1
aka “ The Lovely Carlotta, 1
Shakes, 1
Live Bootleg, 1
Eileen’, 1
Katrina, 1
Nena, 1
You Jerome Miller, 1
Jerome Miller, 1
Bo Hopkins, 1
Motherfucker , 1
Hey , 1
Formica, 1
Cool, 1
Xena, 1
Hummer, 1
Bazooka, 1
Jeans, 1
Call Poole, 1
Ruff, 1
Quincy P, 1
Loser, 1
John Wayne, 1
Patrick , 1
Leon  Leon , 1
Skeletons, 1
Gabrielle Pietro, 1
Bartholomew, 1
Church, 1
Van Gogh, 1
Michael Jordan, 1
Stephen Hawking, 1
Dylan Thomas, 1
Mister Perfect, 1
Hehheh, 1
Remy ” Broussard, 1
Drano, 1
Pawing, 1
ME, 1
True, 1
Scumbag, 1
Volk, 1
Amen, 1
Haha, 1
Devinthey, 1
Then Poole, 1
Kills Mullen, 1
Hmm ” I, 1
Angie Brake, 1
Ruprecht Rogowski Angie, 1
Devin , 1
Harvard Stadium, 1
Whooee, 1
John Ives, 1
John Coltraine, 1
Johnny Davis, 1
Narco, 1
Vic, 1
Mel, 1
HurtYous’, 1
’m Patrick, 1
Marty SchottenheimerBill Parcells, 1
DoRights, 1
Remy ” I, 1
themMike Lawnhad, 1
Zeke Monfriez, 1
Zeke, 1
But Broussard, 1
Once Vice, 1
Vreeman, 1
Rog Doleman, 1
Subtle, 1
Schubert, 1
Miss Saigon, 1
Wang, 1
Andrew Lloyd Webber, 1
Angela Gennaro, 1
Cohiba, 1
Ngyun Tang, 1
Nicholas Raftopoulos, 1
Bulletproof, 1
Daddy, 1
Us’, 1
Edward Hopper, 1
Hopper, 1
Why Broussard, 1
Maybe Broussard, 1
Ssshh, 1
Lionelhe, 1
I ’m Neal, 1
Matt McCready, 1
Matthew, 1
Cokes, 1
Ted, 1
Kenneally, 1
Bronco, 1
Boston, 1
Walter Payton, 1
Hurts, 1
Rachel ca, 1
Rachel Broussard, 1
Miss Gennaro , 1
So Broussard, 1
Poof, 1
Driscoll, 1
Old Thompson, 1
Spine, 1
Just, 1
Remy Broussard , 1
Angie , 1
Luck, 1
Get Broussard, 1
Semis, 1
Peckinpah, 1
Lung, 1
Fucking Mullen, 1
Funny, 1
Fucker, 1
Kenzie  ” Broussard, 1
Nicholas, 1
Eugene Torrel, 1
You, 1
Not Poole, 1
Lyn Campbell, 1
Campbell’, 1
Janet Harris, 1
Joseph Centauro, 1
Cheswick Hartman, 1
Prescott, 1
Detective Centauro, 1
Centauro, 1
Ritalin, 1
Floris Mansfield, 1
Floris, 1
Charles Stuart, 1
Willie Bennett, 1
Darin, 1
Someone, 1
Killing Mullen, 1
Dean Martin, 1
Luther Allison, 1
Taj Mahal I, 1
Dino, 1
Larry , 1
Ruff , 1
Amanda ’s, 1
Uncle Larry, 1
Fuck, 1
Christopher Mullen, 1
Pharaoh Gutierriez, 1
Watergate, 1
Nixon, 1
Wee David Martin, 1
Sven “ Cheese ” Olamon, 1
Raymond Likanski, 1
Rosa, 1
Bea, 1
Goodbye, 1
Love, 1
Elgin Bern, 1
Blue ’s Eden, 1