Chigurh, 583
Bell, 492
Moss, 423
McCarthy, 287
Carla Jean, 165
Ed Tom, 86
Llewelyn, 66
Wells, 64
Cormac McCarthy, 55
Ellis, 52
Anton Chigurh, 51
Loretta, 49
Joel Coen, 41
Ethan Coen, 40
God, 35
Llewelyn Moss, 33
Coen, 33
Sheriff Bell, 24
Coens, 23
Ed Tom Bell, 22
Billy, 22
John Grady, 22
Holden, 20
Alfred A, 20
Bardem, 18
Billy Parham, 17
John Grady Cole, 16
Woodward, 16
Campbell, 16
Wendell, 15
Cormac, 15
Rick Wallach, 14
Carson, 13
Javier Bardem, 12
Dennis Rothermel, 12
Shane, 12
Tommy Lee Jones, 12
Fischer, 11
Yeats, 11
Wilson, 11
Palmer, 11
Joel, 11
Grace, 11
Wallach, 10
Arnold, 10
Ravizza, 10
Boyd, 10
Erin K, 9
Johns, 9
Dennis Cutchins, 9
Fletcher, 9
George Stevens, 9
Josh Brolin, 9
Jones, 9
Stevens, 9
John Vanderheide, 8
Robert Jarrett, 8
Deresiewicz, 8
Carson Wells, 8
James, 8
Fargo, 8
Clayton, 8
Jason Landrum, 8
Linda Woodson, 7
John Cant, 7
Schopenhauer, 7
Blood Meridian, 7
Edwin T, 7
Jackson, 7
Carthy, 7
Bonhoeffer, 7
Barton Fink, 7
Napoleon Dynamite, 7
Heidegger, 7
David Cremean, 6
Jim Welsh, 6
Sonya Topolnisky, 6
Stacey Peebles, 6
Mary Zophres, 6
Mellen, 6
Parham, 6
McGowan, 6
Steven Frye, 5
Scott Covell, 5
Coens’, 5
Pretty Horses, 5
Hoefer, 5
Foucault, 5
O’Connor, 5
Oates, 5
Harper, 5
Bunyan, 5
Martin, 5
Suttree, 5
Chandler, 5
Uncle Mac, 5
Culla, 5
Richard, 5
Carla, 5
Devil, 5
Brown, 5
Pat Tyrer, 5
Mitchell, 5
Jesse James, 5
Tobin, 5
Slotkin, 5
O’Brien, 5
Billy Bob Thornton, 4
Uncle Ellis, 4
Luce, 4
Peter, 4
Mark Ravizza, 4
Quijada, 4
Sally, 4
Plato, 4
Flannery, 4
Byzantium, 4
William Butler, 4
Wood, 4
Crossing, 4
Eliot, 4
David, 4
Jarrett, 4
John, 4
Lawrence, 4
Eduardo, 4
Guillemin, 4
Conan Doyle, 4
Jameson, 4
Hemingway, 4
Nair, 4
Jack Wilson, 4
Peek, 4
Lacan, 4
Rawlins, 4
Loren Visser, 4
O’Meara, 4
William Rodney Allen, 4
Emerson, 4
Deleuze, 4
John Turturro, 4
Stein, 4
Joseph Campbell, 3
Lynnea Chapman King, 3
Landrum, 3
Thornton, 3
Elam, 3
Mayne, 3
Carlson, 3
Dianne C, 3
Blevins, 3
Cole, 3
Anton, 3
Christ, 3
Michel, 3
Flannery O’Connor, 3
William Butler Yeats, 3
René Girard, 3
Girard, 3
Chig, 3
Robert, 3
Culla Holme, 3
John Ford, 3
Grisham, 3
Baker, 3
Thomas, 3
Jack Palance, 3
Carter, 3
Hoffer, 3
Eddie Dane, 3
John Goodman, 3
Macklin, 3
Robert Frost, 3
Amir, 3
Michael, 3
Todd, 3
Robert Ford, 3
Ethan, 3
David Denby, 3
Vogner, 3
Torrey, 3
Titus Andronicus, 3
Lee Clayton, 3
Denby, 3
Pumphrey, 3
Zophres, 3
Larry Mahan, 3
Neale, 3
Soukup, 3
Pérez, 3
Ciment, 3
McKenna, 3
Salinger, 3
Frances McDormand, 3
Frye, 2
Pat Nickell, 2
Josyph, 2
I Pagliacci, 2
Ingarden, 2
Pfister, 2
Corelli, 2
John Madden, 2
David Lynch, 2
Bakhtin, 2
Fred Zinnemann, 2
Rick, 2
John Martin Fischer, 2
Don Hector, 2
Mac, 2
Lyotard, 2
Satan, 2
Strawson, 2
Donald F, 2
Bouchard, 2
Steve, 2
Susan, 2
Faulkner, 2
Mark Twain, 2
Melville, 2
Joyce Carol Oates, 2
Gibson, 2
Dersiewicz, 2
Sam Peckinpah, 2
Roger D, 2
Hodge, 2
Kushner, 2
Jason, 2
Wade Hall, 2
William, 2
René, 2
Richard B, 2
Venomous Fiction, 2
Cormac Country, 2
Angus Fletcher, 2
Spenser, 2
Joyce, 2
Lewis, 2
Allegory, 2
Robert E, 2
Lee, 2
George Guillemin, 2
Oedipus, 2
Marion Sylder, 2
Lester Ballard, 2
Me, 2
Hammett, 2
Ellroy, 2
Marlowe, 2
Bloom, 2
Ather Ownby, 2
Harold, 2
Cain, 2
Jorgensen, 2
Philip Larkin, 2
Moriarty, 2
Puzo, 2
Niebuhr, 2
Clint Eastwood, 2
John Ashley, 2
Pauline, 2
Arthur, 2
Ernest, 2
Charles Scribner, 2
Norton, 2
Christopher Sharrett, 2
Evelle Snopes, 2
Mark Hoffer, 2
Raising Arizona, 2
Connors, 2
Louis Petrich, 2
Pascal, 2
Tony Richardson, 2
John Sayles, 2
Albert Camus, 2
Dirda, 2
Andrew Sarris, 2
Tony Macklin, 2
Cineaste, 2
Fred Zimmerman, 2
Mark, 2
Miller, 2
Paul Thomas Anderson, 2
Dillon, 2
Giddens, 2
Lee Clark Mitchell, 2
Loretta Bell, 2
Winston, 2
Lee Clark, 2
Norman, 2
Yuma, 2
Jim Kidd, 2
Musat, 2
Michael Ordoña, 2
Letterman, 2
Turan, 2
Brad Pitt, 2
Shannon, 2
Jack Nicholson, 2
Palance, 2
Stonewall, 2
Stonewall Jackson, 2
Julie Taymor, 2
Russell Crowe, 2
Arthur Penn, 2
Brando, 2
Calvin, 2
Scott, 2
Gawain, 2
Glanton, 2
Richard Slotkin, 2
Shaviro, 2
Evil, 2
Warner Bros, 2
Charlotte Herzog, 2
Iley, 2
Mahan, 2
DeLano, 2
Warshow, 2
Everson, 2
Kollin, 2
Edward Buscombe, 2
Yeah, 2
Butch Cassidy, 2
Woodrow Call, 2
Sergio Leone, 2
Carla Jean Moss, 2
Jacques Lacan, 2
JeanPierre Melville, 2
Jim Jarmusch, 2
Geoffrey O’Brien, 2
Lowe, 2
Luke, 2
Jeff Bridges, 2
Barton Palmer, 2
Mircea Eliade, 2
Harry Morgan, 2
Meanin, 2
Twain, 2
Phil Snyder, 2
Jaehne, 2
Rodney Allen, 2
Arthur Schopenhauer, 2
Homer, 2
Ethan Edwards, 2
Dreyfus, 2
Spinoza, 2
Gabriel Byrne, 2
Bernie Bernbaum, 2
William H, 2
Steve Buscemi, 2
Peter Stormare, 2
Marge Gunderson, 2
McDunnough, 2
George Clooney, 2
Ed Crane, 2
Ebert, 2
Kempley, 2
Cremean, 1
Vanderheide, 1
Cant, 1
Patricia Tyrer, 1
Covell, 1
Topolnisky, 1
Woodson, 1
Cutchins, 1
Roger Deakins, 1
Deakins, 1
Stephen Ryan, 1
Dune, 1
Corelli ’s Mandolin, 1
Lucienne Goldmann, 1
Billy ’s, 1
Dianne Luce, 1
Goldmann, 1
JeanLuis Baudry, 1
Arrabal, 1
Alejandro Jodorowski, 1
Jodorowski, 1
Baudry, 1
Christian Metz, 1
Louis de Bernière, 1
Frank Herbert, 1
Kyle MacLachlan, 1
Rip Torn, 1
Elaine, 1
George Savona, 1
Mandolin, 1
Marvin, 1
Kier, 1
Judith, 1
Manfred, 1
John Halliday, 1
Quentin Tarantino, 1
Steven Soderbergh, 1
Gloria Anzaldúa, 1
Carl Hoefer, 1
Steve Kellman, 1
Daniel Punday, 1
Ham, 1
Madison Smartt Bell, 1
Peter Van Inwagen, 1
Susan Wolf, 1
Borges, 1
Magdalena, 1
Aunt Lute Books, 1
Linda Woodson Bell, 1
Madison Smartt, 1
John Martin, 1
Sherry Simon, 1
Carl, 1
Causal Determinism, 1
Kellman, 1
Jean Francois, 1
Geoff Bennington, 1
Brian Massumi, 1
Daniel, 1
Kathy Acker, 1
Galen, 1
Van Inwagen, 1
Wolf, 1
John Martin Fisher, 1
Steven Frye M, 1
Lawrence Thompson, 1
Herman Melville, 1
Mardi, 1
Billy Budd, 1
Thompson, 1
Lawrence R, 1
Richard J, 1
Finnerman, 1
Gordon Lightfoot, 1
William Deresiewicz, 1
Richard Woodward, 1
Wendell Berry, 1
Walker Percy, 1
Mike Gibson, 1
McCar, 1
Annie DeLisle, 1
McCarthy Cormac McCarthy, 1
Hulga, 1
Hazel Motes, 1
Turk, 1
David Cremean Northrop Frye, 1
Bob Dylan, 1
Spiritual Hero, 1
Percy Bysshe Shelley, 1
Jimmy Blevins, 1
Garry Wallace, 1
Edward Abbey, 1
David Kushner, 1
Charles Joseph McCarthy, 1
Medea, 1
Frankenstein, 1
Joseph, 1
Dylan, 1
Bob, 1
Oh Mercy, 1
Mike, 1
Patrick Gregory, 1
Joyce Carol, 1
Wallace, 1
Garry, 1
Meeting McCarthy, 1
Shakespeare, 1
Hawthorne, 1
Edwin Honig, 1
Deborah Madsen, 1
Lamar, 1
Bill Wyrick, 1
Ulysses, 1
Leopold Bloom, 1
Stephen Dedalus, 1
John Vanderheide Moss, 1
Ronald Reagan, 1
White, 1
John Glanton, 1
Michel Foucault, 1
Gordon Teskey, 1
Johnson, 1
Tom Griffith, 1
Angus, 1
Robert Hurley, 1
Honig, 1
Edwin, 1
Madsen, 1
Deborah, 1
Edmund, 1
Smith, 1
de Selincourt, 1
Teskey, 1
Gordon, 1
Oedipus Rests, 1
Sartoris, 1
JeanJoseph Goux, 1
John Wesley Rattner, 1
Cornelius Suttree, 1
Mac MacDonald, 1
Boyd Parham, 1
McCarthy9, 1
John Cant Chigurh, 1
Tim Poland, 1
Hurt, 1
Ownby, 1
Raymond, 1
Goux, 1
JeanJoseph, 1
Porter, 1
George, 1
Robert L, 1
Tim, 1
William B, 1
Thomas Harris, 1
Patricia Cornwell, 1
John Grisham, 1
Ann Radcliffe, 1
Peter Berger, 1
Sherlock Holmes, 1
David Brown, 1
Shelby, 1
James Wood, 1
Fredric Jameson, 1
Jon de Bont, 1
Isaac, 1
Dietrich Bonhoeffer, 1
Iago, 1
Hitler, 1
Henry James, 1
Wilde, 1
Madame de Vionnet, 1
Strether, 1
Wirtz, 1
Rinthy, 1
Reinhold Niebuhr, 1
Voice, 1
John Carlos Blake, 1
Bob Baker, 1
Ashley, 1
Ballard, 1
Berger, 1
Blake, 1
James Carlos, 1
Dietrich, 1
Eberhard Bethge, 1
Neville Horton Smith, 1
Harris, 1
Ernest Hemingway, 1
Henry, 1
Rosenbaum, 1
Fredric, 1
Robert Jarrett Niebuhr, 1
Reinhold, 1
Mario, 1
Jan de Bont, 1
Marshal Kane, 1
Richard Corliss, 1
Rother, 1
Rothermel, 1
Michael Wood, 1
mac McCarthy, 1
Christopher Shar, 1
Steven Carter, 1
iff Bell, 1
Dunnough, 1
Craddock, 1
Blood Simple, 1
Lebowski, 1
Legwater, 1
Marge, 1
Turpin, 1
Hud, 1
Lone Star, 1
Kafka, 1
Sarris, 1
Khaled Hos, 1
Hassan, 1
Sherriff Ed Tom Bell, 1
Mike Zoss Productions, 1
Stephen, 1
Jim Craddock, 1
Corliss, 1
True Glory’, 1
Frost, 1
Mending Wall, 1
Hosseini, 1
Khaled, 1
Martin Ritt, 1
Junior Bonner, 1
Marc Forster, 1
Tony, 1
Nick Pici, 1
Sharrett, 1
Christopher, 1
Pat Nickell I, 1
Gary Cooper, 1
Marshal Will Kane, 1
Pat Nickell William Handley, 1
Larry McMurtry, 1
Pat Nickell Alone, 1
Jason Mitchell, 1
Joseph Rosa, 1
Sheriff, 1
Sean Weitner, 1
Todd McCarthy, 1
Nick James, 1
Pat Nickell West, 1
Handley, 1
William R, 1
Nick, 1
Blood Money, 1
McMurtry, 1
Larry, 1
Lumet, 1
Jason P, 1
Louise Erdrich, 1
Rosa, 1
Joseph G, 1
Weitner, 1
Sean, 1
Abel, 1
Elmore Leonard, 1
Russell, 1
Scott Covell Crowe, 1
Ron Hansen, 1
Daniel DayLewis, 1
Daniel Pla, 1
Jon Stewart, 1
Dorothy Hamill, 1
Prince Valiant ” hairdo, 1
David Letterman, 1
Chris Vogner, 1
Nitin Nair, 1
Tyler Durden, 1
John Heder, 1
Heder, 1
Michael Cera, 1
Paulie Bleeker, 1
Juno, 1
Christopher MintzPlasse, 1
Peter Travers, 1
Rolling Stone, 1
Anton Chig, 1
Napoleon, 1
Chigurh , 1
Anthony Hopkins’ Hannibal Lecter, 1
Jack Torrance, 1
Anthony Perkins’ Norman Bates, 1
Jack Schaefer, 1
Billy Crystal, 1
Curly Washburn, 1
Jack o’ Lantern, 1
Wil, 1
Him, 1
Poe, 1
Aaron the Moor, 1
Titus, 1
Aaron, 1
Marlon Brando, 1
Philip French, 1
Richard Harris, 1
Tom Logan, 1
Randy Quaid, 1
Little Todd, 1
Harry Dean Stanton, 1
Tulluch, 1
Yumas, 1
Toadvine, 1
Scott Covell Meridian, 1
Javier Barden, 1
Hannibal Lecter, 1
Yea, 1
la Jack Wilson, 1
Woody Harrelson, 1
Scott Covell Carson, 1
Wells’, 1
Damn, 1
Death, 1
Anton Chigurhs, 1
Joe Kidd, 1
Daniel Day, 1
Daniel Plainview, 1
Brando ’s Robert E, 1
James Mangold, 1
Andrew Dominik, 1
Ron Underwood, 1
Killing Joke, 1
David Fincher, 1
Philip, 1
Jason Reitman, 1
David Letterman Show, 1
PerskyBright, 1
Carmen, 1
Nitin, 1
Jared Hess, 1
Ordonã, 1
Walter, 1
Graham Tulluch, 1
Jeff, 1
Steven, 1
Roger Sherman Loomis, 1
Laura Hibbard Loomis, 1
Greg Mottola, 1
Travers, 1
Kenneth, 1
O Brothers, 1
Cecil B, 1
DeMille, 1
Jesse L, 1
Chris, 1
Wister, 1
Owen, 1
Jane Gaines, 1
Carla Jean mo, 1
Chrissy Iley, 1
Mark Smith, 1
Paul LeBlanc, 1
LeBlanc, 1
Paul Le Blanc, 1
Nocona, 1
Robert Warshow, 1
Wittgenstein, 1
Alan Ladd, 1
Stetson, 1
Alexandra Palmer, 1
Clark, 1
Susan Kollin, 1
Sharon, 1
William K, 1
Gaines, 1
Jane Marie, 1
Roberta E, 1
Pearson, 1
Chrissy, 1
Alexandra, 1
Hazel Clark, 1
Rich, 1
Katey, 1
Jen, 1
com Warshow, 1
Jim Kitches, 1
Gregg Rickman, 1
Sheriff Ed Tom Bell, 1
Steve Neale, 1
Tom Mix, 1
John Cawelti, 1
Will Wright, 1
Martin Pumphrey, 1
Wendy Chap, 1
Baby, 1
Douglas MacAr, 1
Reinaldo Are, 1
Valiant, 1
OK Corrall, 1
Stacey Peebles Moss, 1
Lookin’, 1
Julian Schnabel, 1
Cawelti, 1
Andrew Davis, 1
Arturo González Produc, 1
Paul Haggis, 1
Richard Donner, 1
Lonesome Dove, 1
Simon Wincer, 1
Alejandro Amenábar, 1
Barry Sonnenfeld, 1
Steven Cohan, 1
Ina Rae Hark, 1
Stacey Peebles Peek, 1
Wendy Chapman, 1
Masculinity, 1
Melquiades Estrada, 1
Wright, 1
Will, 1
Le Samourai, 1
Joan Mellen, 1
Lord, 1
Charles Soukup, 1
Jacques, 1
Russell Grigg, 1
Joan, 1
Geoffrey, 1
Charles, 1
Dennis Cutchins I, 1
Ted Tally, 1
Orlando, 1
lando, 1
Ed Bell, 1
Alfonsa, 1
Lacey Rawlins, 1
Sergeant Bell, 1
Heisenberg, 1
Carla Jean8, 1
Niogret, 1
Oprah Winfrey, 1
Grandpa, 1
Nio, 1
Kristine McKenna, 1
Yahweh, 1
John Line, 1
Heming, 1
Blevins’, 1
Huck Finn, 1
Walter Scott, 1
Huck, 1
Moss ’s “ Everbody, 1
America Stevens, 1
Snyder, 1
Werner Heisenberg, 1
Karen Jaehne, 1
Billy Bob Thronton, 1
Butcher, 1
James D, 1
Lilley, 1
Hubert Niogret, 1
Jack, 1
Karen, 1
Vergilius Ferm, 1
Andy, 1
Kristine, 1
Barton, 1
Dennis Cutchins Snyder, 1
Phil, 1
Georgew Jr, 1
George Ste, 1
Susman, 1
Gary, 1
Huckleberry Finn, 1
Gerald Graff, 1
James Phelan, 1
Ralph Waldo Emerson, 1
Socrates, 1
LLEWELYN MOSS, 1
Carla Jean —, 1
Eagle Pass, 1
ED TOM BELL, 1
Holden Caulfield, 1
Dennis Rothermel Chigurh, 1
Carlo Jean, 1
Aunt Ella, 1
Dennis Rothermel John Ford, 1
Lars, 1
ANTON CHIGURH, 1
ELLIS, 1
Dennis Rothermel Bell, 1
Martin Heidegger, 1
Hölderlin, 1
Gilles Deleuze, 1
Heideggerean, 1
McCarthyesque, 1
Billy  Crossing, 1
Maria, 1
Don Arnulfo, 1
Roger Dea, 1
John Wayne, 1
Jeffrey Hunter, 1
Martin Pauley, 1
Vera Miles, 1
Laurie Jorgensen, 1
Ward Bond, 1
Samuel Johnston Clayton, 1
John Qualen, 1
Lars Jorgensen, 1
Olive Carey, 1
Jorgenson, 1
Henry Brandon, 1
Adkins, 1
John Getz, 1
Ray, 1
Dan He, 1
Julian Marty, 1
Emmett Walsh, 1
Miller ’s Crossing, 1
Tom Reagan, 1
Marcia Gay Harden, 1
Verna Bernbaum, 1
John Polito, 1
Johnny Casper, 1
Freeman, 1
Dennis Rothermel Albert Finney, 1
Leo O’Bannon, 1
Macy, 1
Jerry Lun, 1
Carl Showalter, 1
Brent, 1
Hegel, 1
Gilles, 1
Martin Joughin, 1
Hubert L, 1
Ralph Waldo, 1
SelfReliance, 1
John Macquarrie, 1
Edward Robinson, 1
William Lovitt, 1
David Farrell Krell, 1
Robert Fitzgerald, 1
Grube, 1
Hackett, 1
Catcher, 1
Payne, 1
Barry Corbin, 1
Randall “ Tex ” Cobb, 1
Nicolas Cage, 1
Tom Regan, 1
Madman Mundt, 1
Waring Hudsucker, 1
Charles Durning, 1
Norville Barnes, 1
Tim Robbins, 1
Jerry Lundegaard, 1
Donnie, 1
Walter ’s, 1
Everett, 1
Pete, 1
Delmar, 1
Tim Blake Nelson, 1
Big Dave, 1
James Gandolfini, 1
Rex Rexroth, 1
Edward Herrmann, 1
Miles Massey, 1
Marylin Rexroth, 1
Catherine Zeta Jones, 1
Marva Munson, 1
Irma P, 1
Marty, 1
Elliot Stein, 1
Lawrence Kasdan, 1
Manohla Dargis, 1
Roger Ebert, 1
Jonathan Rosenbaum, 1
Terrence, 1
Jason Landrum Rafferty, 1
Rafferty, 1
Kenneth Turan, 1
Rita Kempley, 1
Desson Howe, 1
Howe, 1
Kent Jones, 1
Siegfried, 1
Roy, 1
Lisa Schwarzbaum, 1
Hugh Manon, 1
Todd McGowan, 1
Stanley Kubrick, 1
Spike Lee, 1
Michael Mann, 1
Federico Fellini, 1
Freud, 1
Schwarzbaum, 1
Emmet Walsh, 1
Leonard Smalls, 1
Gaear Grismrud, 1