BATEMAN, 269
Bateman, 256
KIMBALL, 73
Christie, 54
McDERMOTT, 41
Jean, 36
Patrick, 31
Paul Owen, 28
COURTNEY, 28
Owen, 24
VAN PATTEN, 21
JEAN, 21
McDermott, 20
Courtney, 20
OWEN, 20
Price, 18
Evelyn, 18
EVELYN, 18
Luis, 17
God, 16
ELIZABETH, 16
CARRUTHERS, 14
Paul, 13
CHRISTIE, 13
Sabrina, 12
Elizabeth, 12
Van Patten, 11
BATEMAN Oh, 11
Carruthers, 11
Carnes, 11
CARNES, 11
Patrick Bateman, 9
Kimball, 9
DAY Bateman, 8
BATEMAN Well, 7
Marcus, 7
WOLFE, 7
NIGHT Bateman, 6
Don, 6
BATEMAN Yes, 6
BATEMAN Don, 6
JEAN Oh, 5
Luis Carruthers, 5
Halberstam, 5
DAISY, 5
Daisy, 5
Wolfe, 5
Jesus, 4
CARRUTHERS Patrick, 4
PAUL OWEN, 4
KIMBALL Well, 4
Phil Collins, 4
Davis, 4
Perrier, 3
Vanden, 3
Pat Bateman, 3
BATEMAN Hello, 3
Hubert, 3
COURTNEY Patrick, 3
Dorsia, 3
BATEMAN Uh, 3
JEAN Patrick, 3
John, 3
Yale, 3
BATEMAN Yeah, 3
BATEMAN I, 3
Laurie Kennedy, 3
JEAN Well, 3
Whitney Houston, 3
KIMBALL Yes, 3
Armani, 2
BATEMAN Okay, 2
Annie Leibovitz, 2
Stash, 2
Timothy, 2
EVELYN Oh God, 2
EVELYN Everybody, 2
BATEMAN Listen, 2
BATEMAN Courtney, 2
Marcus Halberstam, 2
McDERMOTT Hey, 2
McDERMOTT Whoa, 2
BATEMAN Hey, 2
Cecelia, 2
Huey Lewis, 2
Huey, 2
Donald KIMBALL, 2
Harry, 2
Nell, 2
BATEMAN Christie, 2
Stoli, 2
LIBBY, 2
Gorbachev, 2
Ted Bundy, 2
Melania, 2
ELIZABETH You, 2
Au Bar, 2
Sarah Lawrence, 2
Craig McDermott, 2
WOLFE Don, 2
HARRY S BAR, 2
Harold, 2
Lacroix, 1
Charlie Sheen, 1
PATRICK BATEMAN, 1
TIMOTHY PRICE, 1
CRAIG MCDERMOTT, 1
DAVID VAN PATTEN, 1
BATEMAN Van Patten, 1
Reed Robinson, 1
Robinson, 1
McDufus, 1
BATEMAN Whoa, 1
Pamela, 1
Tom Cruise, 1
Eric Fischl, 1
David Salle, 1
Walkman, 1
JEAN Late, 1
JEAN Ricky Hendricks, 1
Ricky, 1
Spencer, 1
JEAN After, 1
BATEMAN Just, 1
JEAN  Playfully, 1
JEAN I, 1
JEAN Yes, 1
JEAN Ummm, 1
JEAN  Sarcastically, 1
EVELYN WILLIAMS, 1
EVELYN I, 1
Daddy Oh, 1
George Michael, 1
EVELYN Marzipan, 1
BATEMAN Evelyn, 1
EVELYN Yes, 1
EVELYN Your, 1
EVELYN Well, 1
Schnabel, 1
Tm Price, 1
Pat, 1
COURTNEY RAWLINSON, 1
LUIS CARRUTHERS, 1
COURTNEY Tell, 1
VANDEN Hey, 1
BATEMAN Bleachee, 1
Soprani, 1
Ronald Harrison, 1
VICTORIA Patrick, 1
Awkward, 1
BATEMAN Um, 1
VICTORIA Hubert, 1
VICTORIA Well, 1
Matine, 1
Christ, 1
Victoria, 1
COURTNEY Ummm, 1
COURTNEY Yes, 1
COURTNEY Uh, 1
COURTNEY I, 1
COURTNEY Dorsia, 1
BATEMAN Nice, 1
COURTNEY Okay, 1
Maitre D, 1
Donald Trump, 1
COURTNEY Champagne, 1
COURTNEY Mmmm, 1
COURTNEY Luis, 1
BATEMAN Oh Christ, 1
Valentino Couture, 1
To Bateman, 1
MARCUS HALBERSTAM, 1
Marcus  BATEMAN, 1
Cecilia, 1
Baxter, 1
BATEMAN Gee, 1
Jeez, 1
Al, 1
Goddammit, 1
Allook, 1
BATEMAN Marcus Halberstam, 1
OWEN Yeah, 1
Ivana Trump, 1
Jeez Patrick I, 1
Ivana, 1
Rothschild, 1
BATEMAN Cecelia, 1
Evelyn Williams, 1
OWEN Evelyn, 1
Martini, 1
Paul  Owen, 1
Eames, 1
ELvis Costello, 1
OWEN Hey, 1
Gwendolyn Ichiban, 1
Gwendolyn, 1
BATEMAN Jesus, 1
BATEMAN Hi, 1
Meredith, 1
JEAN Patrick  BATEMAN, 1
DONALD KIMBALL, 1
T Boone Pickens, 1
Donald KIMBALL BATEMAN, 1
Meredith Powell, 1
BATEMAN Ah, 1
BATEMAN Coffee, 1
BATEMAN Perrier, 1
San Pellegrino, 1
KIMBALL KIMBALL, 1
Steuben, 1
BATEMAN Nuprin, 1
KIMBALL Uh, 1
Nuprin, 1
KIMBALL Yale, 1
BATEMAN Hang, 1
KIMBALL Yeah, 1
Saint Paul, 1
Stephen Hughes, 1
Hubert Ainsworth, 1
BATEMAN Yikes, 1
Cliff Huxtable, 1
KIMBALL Isn, 1
Ralph Lauren, 1
Dad, 1
Paul 0wen, 1
SABRINA, 1
BATEMAN Varda, 1
Collins, 1
Rutherford, 1
BATEMAN Phill Collins, 1
Phill Collins, 1
DAY McDermott, 1
Ed Gein, 1
Ed, 1
Pauses, 1
CARRUTHERS Don, 1
Luis  COURTNEY, 1
Tad, 1
Maura, 1
COURTNEY Listen, 1
COURTNEY Nothing, 1
I Bateman, 1
Kendall, 1
uh Campbell, 1
KIMBALL Kimball, 1
BATEMAN Dan, 1
CARON, 1
Craig, 1
LIBBY Well, 1
CARON Gorbachev, 1
Caron, 1
DAISY Well, 1
BATEMAN Welt, 1
McDERMOTT Heydon, 1
Fiddler, 1
U2he, 1
JEAN Doin, 1
JEAN Need, 1
BATEMAN Jean  JEAN, 1
JEAN Anywhere, 1
JEAN Oh Patrick, 1
Sighs, 1
BATEMAN Soooo, 1
MAITRE D Dorsia, 1
MAITRE D, 1
JEAN You, 1
BATEMAN Jean  Sorbet, 1
JEAN Thanks, 1
JEAN No, 1
Shyly, 1
BATEMAN Jean, 1
JEAN Sorry, 1
JEAN Hmmmm, 1
EVELYN Patrick, 1
Tayloryou, 1
Sweet Briar, 1
Taylor, 1
Evelyn , 1
Frederick Bennet, 1
Charles Rust, 1
BATEMAN KimballI, 1
Matsuda, 1
Timothy Price, 1
BATEMAN God, 1
Veronica, 1
KIMBALL Wait, 1
Petaluma, 1
Orso, 1
BATEMAN Patrick, 1
BATEMAN Absolutely, 1
KIMBALL Huey Lewis, 1
BATEMAN Never, 1
CHRISTIE Alright, 1
BATEMAN Bitch, 1
Christie  Christie, 1
Baselitz, 1
ELIZABETH Well, 1
Spicey, 1
ELIZABETH Anyway, 1
Malcolm Forbes, 1
ELIZABETH Oh God , 1
Allison Poole, 1
Harley, 1
BATEMAN Elizabeth, 1
ELIZABETH Who  BATEMAN, 1
Paul Norman, 1
Whitney, 1
Smith, 1
BATEMAN Harold, 1
Bethany, 1
SMITH, 1
DAY KIMBALL, 1
BATEMAN Marcus, 1
Frederick Dibble, 1
Harry Newman, 1
George Butner, 1
BATEMAN Doesn, 1
GUY Hey, 1
Kinsley, 1
BATEMAN Jean  Hello  Jean  JEAN, 1
David Van Patten, 1
Tim Price, 1
McDERMOTT Bateman, 1
HAROLD CARNES, 1
CARNES Jesus, 1
CARNES Bateman, 1
Cynthia, 1
Edward Towers, 1
BATEMAN Carnes, 1
Ronald Reagan, 1
DAY Jean, 1