Deckard, 276
Batty, 80
Sebastian, 74
SEBASTIAN, 35
Tyrell, 33
Rachael, 33
Leon, 32
Holden, 20
Bryant, 19
DECKARD, 15
RACHAEL I, 15
Mary, 14
TYRELL, 14
RACHAEL, 13
RACHAEL You, 11
Pris, 10
BRYANT, 9
DECKARD Yeah, 9
DECKARD I, 7
Esper, 7
SEBASTIAN I, 6
DECKARD You, 5
Chew, 5
RACHAEL It, 5
Wheeler, 5
Salome, 5
BATTY, 5
Taffey, 4
DECKARD Don, 4
Zhora, 4
HOLDEN, 3
LEON I, 3
Roy Batty, 3
MARY, 3
Dusenberg, 3
WHEELER, 3
DECKARD Me, 3
LEON You, 3
Deetchum, 3
DECKARD Okay, 2
SEBASTIAN You, 2
SEBASTIAN Yes, 2
Eldon Tyrell, 2
RACHAEL That, 2
SALOME, 2
LEON Prosit, 2
RACHAEL S, 2
Waddles, 2
Aunt Mary, 2
RACHAEL How, 2
RACHAEL Do, 2
Roy, 2
Styles, 2
TYRELL I, 2
LEON Okay, 1
LEON Sorry, 1
LEON Whatcha, 1
Leon  Leon, 1
Acquavit, 1
VOICE Deckard, 1
DECKARD Yah, 1
Gaff, 1
GAFF Holden, 1
VoightKampff, 1
Uncle Ben, 1
Ray Bolger, 1
ROY BATTY, 1
HANNIBAL, 1
Charles Dickens, 1
SEBASTIAN It, 1
SEBASTIAN Don, 1
SEBASTIAN Oh, 1
SEBASTIAN Well, 1
CLEARANCE Deckard, 1
ESPER I, 1
Watchman, 1
SEBASTIAN Yeah, 1
SEBASTIAN Methuselah Syndrome, 1
SEBASTIAN Good, 1
God, 1
RACHAEL Hello, 1
RACHAEL Mr, 1
TYRELL Black, 1
TYRELL Somehow, 1
DECKARD Yes, 1
RACHAEL Go, 1
RACHEL I, 1
RACHAEL Ugh, 1
TYRELL You, 1
DECKARD Huh, 1
DECKARD True, 1
WHEELER Too, 1
RACHAEL There, 1
RACHAEL So, 1
RACHAEL Do I, 1
RACHAEL Can, 1
RACHAEL A, 1
RACHAEL Good, 1
BRYANT Bryant, 1
Venus, 1
Miss Salome, 1
DECKARD Listen, 1
Sarge, 1
BRYANT I, 1
Adam, 1
Blackie, 1
Igor, 1
Anna, 1
LEON How, 1
LEON More, 1
LEON Painful, 1
SEBASTIAN Now, 1
SEBASTIAN Hello, 1
BATTY Whoops, 1
Uncle Roy, 1
BATTY Hello, 1
BATTY Well, 1
SEBASTIAN Okay, 1
HOLDEN Don, 1
Deck, 1
RACHAEL Who, 1
RACHAEL Oh, 1
RACHAEL Did, 1
RACHAEL Nobody, 1
SEBASTIAN Like, 1
Tyrell  Batty, 1
SEBASTIAN He, 1
BATTY Tyrell, 1
BATTY I, 1
MARY I, 1
Hannibal Chew, 1
WIFE, 1
SEBASTIAN Can, 1
IAN, 1
Ian, 1
IAN Papa, 1
BATTY Yeah, 1
TYRELL Here, 1
TYRELL Come, 1
TYRELL Sit, 1
RACHAEL Uhhuh, 1
RACHAEL Ten, 1
BRYANT She, 1
DECKARD Who, 1
BRYANT Okay, 1
BRYANT Go, 1
RACHAEL Why, 1
RACHAEL Don, 1
MARY Let, 1
SEBASTIAN Just, 1
SEBASTIAN Someone, 1
MARY Then, 1
BATTY Okay, 1
DECKARD Hello, 1
Betty, 1
BATTY Crap, 1