Coraline, 147
Wybie, 25
Mel, 16
MISS SPINK, 13
Caroline, 12
CHARLIE, 12
Mother, 12
Charlie, 11
Bobinsky, 9
Spink, 9
Mom, 8
Miss Spink, 6
Miriam, 6
Miss Forcible, 5
Beldam, 5
Coraline Jones, 4
Father, 4
SPINK, 3
Angus, 3
Jock, 3
BELDAM, 3
Mover, 2
Wyborne, 2
MEL, 2
Dad, 2
MEL Coraline, 2
CHARLIE What, 2
CHARLIE I, 2
CHARLIE Well, 2
Jasmine, 2
MOTHER Coraline, 2
God, 2
Huck Finn, 2
Gramma, 2
SPINK Bad, 2
BOBINSKY, 2
CORALINE JONES, 1
Coraline SPINS, 1
Jerks, 1
Wybie Lovat, 1
MEL JONES, 1
MEL No, 1
MEL I, 1
MEL What, 1
CHARLIE Jones, 1
CHARLIE Hello, 1
CHARLIE No, 1
MEL Uhhh, 1
MEL Will, 1
MEL We, 1
Coraline HUFFS, 1
Norman Rockwell, 1
Charlie Jones, 1
Nods, 1
Daas vee DAAN ya, 1
JOCK, 1
Leer, 1
Julius Seize, 1
Oolong, 1
Hamish, 1
Jock Junior, 1
Forcible, 1
Grandma, 1
Kiddo, 1
Sergei Alexander Bobinsky, 1
CORALINE Ughhh, 1
CHARLIE You, 1
MEL Put, 1
MEL Maybe, 1
Jones, 1
MEL Your, 1
MEL Had, 1
MEL How, 1
MEL Look, 1
Dearest Coraline, 1
Dad , 1
CORALINE Gooooood, 1
WYBIE You, 1
WYBIE Yeah, 1
Jonesy, 1
JONES, 1
SPINK Wellit, 1
NIGHT Coraline, 1
MOTHER Darling , 1
Gosh, 1
MOTHER Huh, 1
Coraline EXHALES, 1
Motherrr, 1
Young Spink, 1
HOLLERS, 1
MEL Missed, 1
MEL And, 1
CHARLIE Coraline, 1
MEL Well, 1
CHARLIE We, 1
Charlie LAUGHS, 1
CHARLIE Good, 1
HOLLERING, 1
WYBIE Wwell, 1
CHARLIE Here, 1
Charlie BURPS, 1
Charlie  CHARLIE Oh, 1
Mel SIGHS, 1
Lovat, 1