Harry, 450
HARRY POTTER, 161
Dumbledore, 157
Ron, 134
Hermione, 109
Slughorn, 98
Ginny, 58
Malfoy, 50
HARRY, 48
Snape, 47
Draco, 40
HERMIONE, 36
HARRY I, 35
Bellatrix, 24
TOM RIDDLE, 24
Riddle, 23
Cormac, 22
Hagrid, 21
Luna, 15
Harry ’s, 15
Tom, 15
Tom Riddle, 14
McGonagall, 13
George, 11
Lavender, 11
Narcissa, 10
HARRY It, 10
Weasley, 10
HARRY You, 10
Dean, 10
Fred, 9
Voldemort, 9
Katie, 9
McGONAGALL, 8
Katie Bell, 8
Arthur, 8
Horace, 7
WEASLEY, 7
Potter, 7
HARRY Well, 7
HARRY Do, 6
Ron ’s, 6
HARRY No, 6
Neville, 6
Severus, 5
HARRY Sir, 5
Greyback, 5
Felix Felicis, 5
Quaffle, 5
RON I, 5
Leanne, 5
Lupin, 5
Draco Malfoy, 4
Harry Potter, 4
HARRY Really, 4
RON You, 4
LAVENDER BROWN, 4
HARRY Dunno, 4
HERMIONE I, 4
Blaise, 4
Harry , 4
GINNY, 4
KATIE BELL, 4
DUMBLEDORE, 4
Cole, 4
RON What, 4
Belby, 4
RON No, 4
HARRY Oh, 3
Merrythought, 3
WEASLEY Harry, 3
RON Harry, 3
HARRY Did, 3
RON How, 3
RON, 3
Pansy, 3
HARRY Have, 3
COLE, 3
DUMBLEDORE Yes, 3
HARRY All, 3
Seamus, 3
HAGRID, 3
McLaggen, 3
Romilda Vane, 3
HARRY Okay, 3
Tonks, 3
Molly, 3
HARRY Yes, 3
HARRY Hagrid, 3
ALBUS DUMBLEDORE, 2
HARRY’S, 2
NARCISSA, 2
DUMBLEDORE I, 2
SLUGHORN Yes, 2
Horace Slughorn, 2
GINNY I, 2
Ron  Ron, 2
Dad, 2
Wizard Wheezes, 2
GEORGE We, 2
GEORGE, 2
CORMAC McLAGGEN, 2
RON C’mon, 2
HARRY Good, 2
DUSK Hermione, 2
HERMIONE Harry, 2
HARRY Sorry, 2
Filch, 2
HARRY Thanks, 2
Miss Granger, 2
TOM RIDDLE’S, 2
Granger, 2
Bludgers, 2
Demelza, 2
Aragog, 2
HERMIONE Oh, 2
SLUGHORN Harry, 2
LEANNE, 2
HAGRID Don’, 2
McGONAGALL I, 2
NEVILLE, 2
HARRY The, 2
SEAMUS, 2
Slytherin, 2
Ron , 2
HERMIONE Ron, 2
HARRY Yeah, 2
LUPIN, 2
Remus, 2
HARRY Go, 2
SLUGHORN Now, 2
Dippett, 2
Lestrange, 2
Avery, 2
HARRY Hermione, 2
RON Do, 2
HARRY He, 2
Norris, 2
SLUGHORN Merlin, 2
Francis, 2
HARRY Professor, 2
Smiles, 2
Harry and Dumbledore, 2
Hagrid ’s Hut, 2
Ollivander, 1
Wormtail, 1
Dark Lord, 1
Lord, 1
Cissy, 1
NARCISSA Oh, 1
Severus Snape, 1
Malfoy Sentenced, 1
HARRY Hey, 1
HARRY Ca, 1
DUMBLEDORE Wand, 1
DUMBLEDORE Lumos, 1
Harry ’s SCAR, 1
HORACE SLUGHORN, 1
Albus  DUMBLEDORE I, 1
Barnubas Cuffe, 1
Gwenog Jones, 1
Sirius, 1
Regulus, 1
HARRY But, 1
Hedwig, 1
HARRY Sir  Dumbledore, 1
GINNY WEASLEY, 1
GINNY Hedwig, 1
GINNY Harry Dimpleton, 1
HEDWIG, 1
RON WEASLEY, 1
Harry  GINNY Me, 1
RON ‘ Course, 1
GINNY Harry ’s, 1
WEASLEY Harry , 1
RON Mum, 1
RON Anyway, 1
Hogwarts, 1
HARRY Rubbish, 1
GEORGE WEASLEY, 1
FRED Nosebleed Nougats, 1
HARRY Amazing, 1
GEORGE Bloody, 1
HARRY Peruvian, 1
FRED Handy, 1
GEORGE Yes, 1
Dean Thomas, 1
GEORGE Five Galleons, 1
GEORGE Ten Galleons, 1
RON Hi, 1
RON Fred, 1
HARRY Reckon, 1
RON Is, 1
Borgin, 1
RON Sorry, 1
DEAN THOMAS, 1
RON One, 1
HARRY Look, 1
PARKINSON, 1
BLAISE ZABINI, 1
Blaise  BLAISE, 1
MALFOY Hogwarts, 1
MALFOY Oh, 1
LUNA Hello, 1
HARRY Luna, 1
HARRY Professor Flitwick, 1
MALFOY, 1
LUNA Episkey, 1
HARRY Brilliant, 1
RON Don’, 1
RON Oi, 1
HARRY Later, 1
Hall, 1
Harry eyes Malfoy, 1
Davies, 1
McGONAGALL Potter, 1
Potions, 1
McGONAGALL Good, 1
RON Ron Weasley, 1
HARRY Um, 1
HERMIONE Granger, 1
BLAISE, 1
HARRY Crush, 1
HERMIONE Sh  Harry, 1
Medea, 1
HARRY Fine, 1
HARRY Definitely, 1
COLE I, 1
COLE You, 1
Tom  TOM RIDDLE, 1
CORMAC, 1
RON Hard, 1
Keeper, 1
Beater, 1
CORMAC I, 1
Bludger, 1
DEMELZA ROBINS, 1
CORMAC Hang, 1
HARRY Quiet, 1
Ginny ’s Quaffle, 1
RON Have, 1
RON Has, 1
HERMIONE He, 1
HARRY Ever, 1
Sectumsempra, 1
RON Not, 1
HAGRID Hey, 1
Hagrid CHUCKLES, 1
HAGRID Stinksap, 1
RON Barking, 1
HARRY Who, 1
RON Okay, 1
RON Aw, 1
Ronald, 1
RON That, 1
HARRY Hello, 1
Butterbeer, 1
SLUGHORN Brilliant, 1
Wallenby, 1
HARRY Dumbledore, 1
RON Get, 1
RON Um, 1
RON Bit, 1
Ron DASH, 1
LEANNE I, 1
McGONAGALL You, 1
McGONAGALL All, 1
RON Believe me, 1
McGONAGALL Severus, 1
Miss Bell, 1
HARRY She, 1
McGONAGALL Yes, 1
SNAPE You, 1
RON Dean, 1
RON Yeah, 1
RON Skin, 1
RON Hermione, 1
RON Right, 1
MARCUS BELBY, 1
Blaise Zabini, 1
NEVILLE LONGBOTTOM, 1
Tiberius, 1
Marcus’, 1
MARCUS BELBY Dunno, 1
Robbie Fenwick, 1
GINNY Sorry, 1
HERMIONE Nothing, 1
Lily Potter, 1
Regulus Black, 1
Harry  HARRY I, 1
HARRY Did Voldemort, 1
Quidditch, 1
NEVILLE Good, 1
RON So, 1
HERMIONE Ol’ Sluggy, 1
RON Really, 1
HERMIONE Really, 1
RON Sure, 1
HERMIONE Do, 1
Gryffindor, 1
Mardi Gras, 1
HARRY Yep, 1
HERMIONE You, 1
HERMIONE Charms, 1
HARRY Ah, 1
HERMIONE Oppugno, 1
RON Look, 1
Lav, 1
HERMIONE Yes, 1
ROMILDA, 1
Kidding, 1
Luna Lovegood, 1
ADRIAN, 1
Adrian , 1
HARRY Neville, 1
ELDRED WORPLE, 1
Hermione YELPS, 1
HARRY Cormac, 1
HARRY Dragon, 1
HARRY Traveling, 1
MALFOY Okay, 1
HARRY Positive, 1
HARRY Lovely, 1
RON All, 1
TONKS, 1
HARRY Draco, 1
LUPIN Voldemort, 1
WEASLEY Yes, 1
WEASLEY I, 1
HARRY A, 1
WEASLEY Nothing, 1
WEASLEY Remus, 1
HARRY Soon, 1
Harry ’s SILHOUETTE, 1
TONKS Remus, 1
WEASLEY Ginny, 1
TOM RIDDLE Intuition, 1
Ping , 1
DUMBLEDORE You, 1
Miss Alys, 1
SLUGHORN Dumbledore, 1
Ol’ Sluggy, 1
HARRY Nice, 1
RON It, 1
HARRY Divine, 1
RON She, 1
HARRY Excuse, 1
HARRY Bloody, 1
RON Snogging, 1
RON Romilda, 1
Dear Harry, 1
Romilda, 1
HARRY Ron, 1
HARRY Devastatingly, 1
Harry RAPS, 1
RON Where, 1
Romilda  Slughorn, 1
Wenby, 1
RON Hello, 1
Ron WINK, 1
HARRY Love, 1
Ron SIPS, 1
HARRY Ron  Ron  , 1
HARRY Breathe, 1
C’mon, 1
RON These, 1
Harry  Dumbledore, 1
MADAM POMFREY, 1
Ron SNORTS, 1
WonWon, 1
RON Er, 1
Blushing, 1
RON Huh, 1
RON Tell, 1
HERMIONE Um, 1
HERMIONE Does, 1
RON Well, 1
HARRY How, 1
HARRY SECTUMSEMPRA, 1
SCARLET, 1
Harry  Potions, 1
GINNY Fred, 1
GINNY See, 1
GINNY All, 1
Oliver Hardy “ Oops, 1
RON Still, 1
HARRY Say, 1
HARRY Excellent, 1
HARRY Right, 1
HARRY Trust, 1
Felix, 1
Harry HUMS, 1
Harry  HARRY Sorry, 1
Madam Sprout, 1
HARRY Personally, 1
Harry  HARRY, 1
Harry and Slughorn, 1
Arry, 1
Orace, 1
SLUGHORN Hagrid, 1
Hagrid BLINKS, 1
HARRY Oh yeah, 1
HAGRID Aragog, 1
SLUGHORN, 1
HAGRID Tha’, 1
Odo, 1
Harry  Hagrid, 1
HARRY Poof, 1
Death Eater, 1
HARRY Be, 1
TOM RIDDLE Horcrux, 1
TOM RIDDLE Murder, 1
Merlin, 1
HARRY Seven, 1
HARRY Tom Riddle, 1
Ginny Weasley, 1
DUMBLEDORE True, 1
Harry  Hermione, 1
RON Good, 1
DUMBLEDORE Harry, 1
HARRY My, 1
Find Harry, 1
HARRY Aguamenti, 1
DUMBLEDORE Go, 1
Grins, 1
Madam Pomfrey, 1
DUMBLEDORE Do, 1
MALFOY I, 1
Albus, 1
DUMBLEDORE Severus, 1
HARRY SCREAMS, 1
Agony, 1
Rage, 1
Harry too, 1
HARRY Running, 1
HARRY Cruciatus  Snape, 1
HARRY Incacerata, 1
HARRY Impedimenta, 1
HARRY Fight, 1
SNAPE Do, 1
HARRY Sectumsempra, 1
Dumbledore   Harry, 1
Ron  Hermione, 1
PROFESSOR McGONAGALL, 1
Reddens, 1