Harry, 143
Ron, 37
Cedric, 34
HARRY, 28
Dumbledore, 28
Hermione, 27
MadEye, 18
HARRY I, 16
Krum, 14
Voldemort, 14
Viktor, 13
HERMIONE, 12
Harry Potter, 10
Neville, 10
Viktor Krum, 9
DUMBLEDORE, 9
Hagrid, 9
Fleur, 9
Potter, 9
Barty, 8
Draco, 7
HARRY Yes, 6
RON Well, 6
HARRY Yeah, 6
MCGONAGALL, 6
NEVILLE, 6
Seamus, 6
CEDRIC, 6
Wormtail, 5
Cho, 5
HARRY Well, 5
Cedric Diggory, 5
Severus, 5
Barty Crouch, 5
Madame Maxime, 4
HARRY No, 4
RON I, 4
Miss Delacour, 4
HARRY Um, 4
Nigel, 4
Harry I, 4
Arthur, 3
Amos, 3
HERMIONE Harry, 3
HARRY I dunno, 3
HARRY It, 3
HARRY Oh, 3
Igor Karkaroff, 3
RON Bloody, 3
MadEye Moody, 3
RON Yeah, 3
HARRY He, 3
Azkaban, 3
Parvati, 3
HERMIONE I, 3
HARRY Don, 3
Moody, 3
McGonagall, 3
Severus Snape, 3
Myrtle, 3
Lord Voldemort, 3
HARRY Hermione, 2
HARRY Thanks, 2
Fred, 2
Cho Chan, 2
RON Blimey, 2
RON He, 2
GEORGE That, 2
Neville Longbottom, 2
Miss Granger, 2
Granger, 2
DUMBLEDORE Harry, 2
MADAME MAXIME, 2
Alastor, 2
Albus, 2
Rita Skeeter, 2
RON You, 2
HARRY Neville, 2
Dean, 2
HARRY What, 2
HARRY Dragons, 2
Malfoy, 2
Diggory, 2
HAGRID, 2
HARRY Ok, 2
Patil, 2
Tessie, 2
Miss Patil, 2
RON No, 2
Filch, 2
NEVILLE You, 2
CEDRIC It, 2
HARRY Myrtle, 2
HARRY You, 2
Igor, 2
CEDRIC You, 2
VOLDEMORT Good, 1
VOLDEMORT Nagini, 1
HERMIONE Harry  Harry, 1
HERMIONE Honestly, 1
Ron , 1
RON Don, 1
ARTHUR Sorry Amos, 1
Amos Diggory, 1
CEDRIC Yes, 1
AMOS Merlin, 1
HARRY Pleasure, 1
HARRY Why, 1
GEORGE It, 1
ARTHUR Harry  Harry, 1
ARTHUR Let, 1
Weasleys, 1
ARTHUR I, 1
ARTHUR Well, 1
HARRY See, 1
ARTHUR Girls, 1
TWINS Yeah, 1
ARTHUR Feet, 1
Smiling, 1
RON Blimey Dad, 1
Lucius Malfoy, 1
LUCIUS Well, 1
Cornelius Fudge, 1
LUCIUS Don, 1
ARTHUR Come, 1
GEORGE Come, 1
GEORGE Here, 1
GEORGE Yes, 1
Ron  TWINS, 1
Viktor I, 1
Viktor I do  Harry, 1
George, 1
Ginny, 1
RON Been, 1
ARTHUR Ron, 1
ARTHUR Harry, 1
RON On, 1
RON Just, 1
Dad, 1
Madam Maxime, 1
Durmstrang, 1
IGOR Albus, 1
DUMBLEDORE Igor, 1
Monsieur Hagrid, 1
Hagrid yelps, 1
FRED Wicked, 1
Mister Bartimus Crouch, 1
Finnigan, 1
Longbottom, 1
Sprout, 1
HERMIONE Neville, 1
RON Eternal, 1
GEORGE Thank, 1
FRED Oh, 1
HERMIONE You, 1
GEORGE You, 1
Fred You, 1
Hogwarts, 1
HERMIONE Go, 1
ROOM Harry, 1
IGOR, 1
Karkaroff, 1
DUMBLEDORE Don, 1
RON Never, 1
HARRY Let, 1
Ron Weasley, 1
RON Piss, 1
RITA So Harry, 1
HARRY Fourteen, 1
Edward, 1
HARRY AGH, 1
RITA, 1
HARRY Sirius, 1
HARRY Do, 1
HARRY Someone, 1
HARRY Who, 1
HARRY Maybe, 1
NEVILLE Moody, 1
HERMIONE Ronald, 1
HERMIONE Uhhh, 1
HERMIONE Dean, 1
Ronald, 1
HARRY Yeah I, 1
HARRY Ron, 1
Charlie, 1
BOY Cedric, 1
CEDRIC Alright, 1
CEDRIC Right, 1
RON Fine, 1
pal Diggory, 1
HARRY Battle, 1
Rita, 1
HARRY The, 1
HARRY Nothing, 1
HOGWARTS Harry, 1
GEORGE We, 1
FRED Lose, 1
GEORGE Or, 1
FRED Pack, 1
HARRY Caught, 1
RON Wasn, 1
HARRY Brilliant, 1
HARRY Hagrid, 1
RON Oh, 1
NIGEL Parcel, 1
Weasley, 1
RON Thank, 1
RON Not, 1
Mum, 1
RON Ginny, 1
GINNY I, 1
RON Dress, 1
Godrick Griffindore, 1
George  Try, 1
RON, 1
Hilary, 1
Weasly, 1
Mr Filch, 1
MCGONAGALL Everybody, 1
RON Blimey Harry, 1
Neville  HARRY, 1
RON Now, 1
RON Well Hermione, 1
RON Come, 1
RON Look, 1
HARRY Agreed, 1
HARRY Cho, 1
CHO Oh, 1
CHO Harry I, 1
Fleur Delacour, 1
HERMIONE She, 1
RON There, 1
HARRY My, 1
Murder me Harry, 1
DANCEHALL Harry, 1
HARRY Leave, 1
RON Poor, 1
RON Hermione, 1
HARRY Ready, 1
Hermione Granger, 1
PARVATI Harry, 1
Jarvis Cocker, 1
RON Hrmph, 1
RON Doubt, 1
RON Go, 1
HERMIONE Ron, 1
Harry , 1
HARRY Really, 1
CEDRIC Hey Potter, 1
HARRY Cedric, 1
CEDRIC How, 1
HARRY Spectacular, 1
CEDRIC Look, 1
HARRY Forget, 1
CEDRIC Exactly, 1
HARRY Polyjuice, 1
HARRY Come, 1
HARRY An, 1
Longbottom  Neville, 1
NEVILLE I, 1
HARRY Do I, 1
Harry Potter  Harry, 1
RON Merci, 1
Diggory  Cedric, 1
GEORGE Well, 1
RON We, 1
HARRY Mr Crouch, 1
Harry  Harry, 1
HARRY Agh, 1
Evan Rosier, 1
Rosier, 1
Yeah, 1
IGOR I, 1
Rookwood, 1
IGOR Ya ya, 1
Snape, 1
IGOR Oh, 1
Frank Longbottom, 1
BARTY JR GAHHHH, 1
HARRY Sir, 1
Mr Crouch, 1
Crouch, 1
Gilliweed, 1
SEVERUS Veritaserum, 1
SEVERUS Don, 1
HARRY Fleur, 1
CEDRIC Get, 1
Harry ducks, 1
CEDRIC Harry  Harry  Harry, 1
HARRY Some, 1
CEDRIC Go, 1
HARRY Together, 1
GRAVEYARD Harry, 1
HARRY Get, 1
HARRY Cedric , 1
Lucius, 1
LUCIUS My, 1
LUCIUS I, 1
VOLDEMORT Harry , 1
Lily Potter, 1
VOLDEMORT Atta, 1
VOLDEMORT Don, 1
HARRY Have, 1
HARRY S DAD, 1
HARRY S, 1
DUMBLEDORE Harry  Harry  Dumbledore, 1
DUMBLEDORE Severus, 1
Albus Dumbledore, 1
Alastor Moody, 1
HARRY That, 1
Barty Crouch Junior, 1
Barty Jr, 1
VIKTOR Write, 1
RON Do, 1