Skeeter, 345
Minny, 192
Aibileen, 184
Hilly, 147
SKEETER, 128
Celia, 121
Elizabeth, 81
Stuart, 74
MINNY, 61
Charlotte, 61
Mae Mobley, 53
CELIA, 49
Constantine, 40
Johnny, 37
William, 32
Jolene, 30
Missus Walters, 29
Yule May, 28
MAE MOBLEY, 24
ELIZABETH, 20
STUART, 18
Miss Skeeter, 15
Miss Hilly, 15
Jackson, 13
God, 13
ROBERT E, 11
Momma, 10
MISS STEIN, 9
Sugar, 9
Eugenia, 8
Mister Johnny, 8
ELIZABETH Aibileen, 7
Celia Foote, 7
CELIA Johnny, 7
SKEETER Aibileen, 7
Carlton, 7
Miss Stein, 7
JOHNNY, 7
WALTERS, 6
Honey, 6
Miss Celia, 6
Rebecca, 6
Robert, 6
HARPER, 6
Leroy, 6
Hilly Holbrook, 6
Don, 6
Treelore, 5
PHELAN, 5
CONSTANTINE, 5
CHARLOTTE, 5
Miss Leefolt, 5
Aibee, 5
Minny Jackson, 5
MINNY Miss Celia, 5
Kennedy, 4
Ole Miss, 4
HILLY, 4
Lord, 4
MINNY  CONT D, 4
SKEETER Well, 4
JOLENE, 4
Mother, 4
MINNY I, 4
MINNY Oh, 4
SKEETER Oh, 4
Oscar, 4
CELIA I, 4
Jolene French, 4
Johnny Foote, 4
GRETCHEN, 4
John F, 3
Blackly, 3
Harper, 3
Billy, 3
HILLY Aibileen, 3
SKEETER Hey, 3
JOLENE FRENCH, 3
Daddy, 3
AIBILEEN, 3
ELIZABETH I, 3
Jameso, 3
CARLTON, 3
NIGHT Skeeter, 3
Medgar Evers, 3
DAY Skeeter, 3
Pascagoula, 3
HILLY Skeeter, 3
HILLY Well, 3
YULE, 3
Evers, 3
Mister Holbrook, 3
CHARLOTTE Skeeter, 3
Ma, 3
CORA, 3
Miss Jolene, 3
SKEETER Stuart, 3
FAYE BELLE, 3
Ernestine, 3
LOU ANN TEMPLETON, 3
Martin Luther King, 2
Missus Stein, 2
Elaine Stein, 2
Myrna, 2
MINNY Missus Walters, 2
MINNY Gone, 2
MINNY Yes, 2
MAE MOBLEY Mae Mobley, 2
JOLENE Well, 2
CELIA FOOTE, 2
Miss, 2
HILLY Yes, 2
JOHNNY Oh, 2
Miss Myrna, 2
Miss Eugenia, 2
Pascagolua, 2
SKEETER I, 2
White Lady, 2
MINNY Okay, 2
DAY Hilly, 2
Leefolt, 2
MINNY Well, 2
MINNY Aibileen, 2
Sweetie, 2
WILLIAM, 2
STUART I, 2
Jesus, 2
HILLY Okay, 2
Myrlie, 2
William Jr, 2
STUART Yes, 2
MINNY We, 2
MAE MOBLEY Aibee, 2
CELIA Well, 2
Miss Nancy, 2
CALLIE, 2
Gretchen, 2
Fanny Mae, 2
Walter Cronkite, 2
Cronkite, 2
JOHNNY Celia, 2
MINNY You, 2
Dear, 2
SKEETER Me, 2
HILLY Missus Phelan, 2
WILLIAM FAULKNER, 1
Mammy Callie, 1
Jr, 1
Uhhuh, 1
Okay, 1
MAE MOBLEY LEEFOLT, 1
ELIZABETH LEEFOLT, 1
EUGENIA  SKEETER  PHELAN, 1
HAROLD BLACKLY, 1
STEIN, 1
Missus, 1
Missus STEIN, 1
Christ, 1
HILLY HOLBROOK, 1
MINNY JACKSON, 1
MISSUS WALTERS, 1
MISSUS WALTERS Minny, 1
Alzheimer, 1
HILLY Minny, 1
Teetee, 1
HILLY Hey, 1
MINNY Uhhum, 1
ELIZABETH Raleigh, 1
JOLENE To Skeeter, 1
James, 1
SKEETER Elizabeth, 1
SKEETER Constantine, 1
ELIZABETH HILLY, 1
ELIZABETH Well, 1
CELIA Please, 1
CELIA Ahhem, 1
CELIA FOOTE Okay, 1
Emerson, 1
ELIZABETH Girl, 1
JOLENE Oh my God, 1
HILLY Uhhmm, 1
SKEETER Aren, 1
ELIZABETH Oh, 1
Jackie, 1
Tell Raleigh, 1
Tara, 1
Feng Shui, 1
JOHNNY FOOTE, 1
JOHNNY Roses, 1
JOHNNY Hey, 1
AIBILEEN Constantine, 1
ELIZABETH Tomorrow, 1
JAMESO, 1
JAMESO Hello, 1
Smithsonian, 1
SKEETER Momma  Skeeter, 1
CHARLOTTE BOUDREAU CANTELLE PHELAN, 1
CHARLOTTE Your, 1
SKEETER Mom, 1
Fanny Peatrow, 1
Charlotte Phelan, 1
CHARLOTTE Eugenia  Skeeter, 1
PASCAGOLUA, 1
ROBERT PHELAN, 1
REBECCA, 1
ROBERT Leave, 1
PASCAGOLUA Sorry, 1
REBECCA Oh my Lord, 1
Young Lady  Pascagolua, 1
SKEETER Daddy, 1
ROBERT Ah, 1
Pray Carlton, 1
CONSTANTINE Gone, 1
SKEETER Momma, 1
CONSTANTINE Oh, 1
ELAINE STEIN, 1
MISS STEIN I, 1
Margaret Mitchell, 1
Mammy, 1
MISS STEIN Look, 1
MISS STEIN Well, 1
Miss Stein  MISS STEIN, 1
BILLY, 1
Shinelle, 1
RALEIGH, 1
ELIZABETH Honey, 1
Hello, 1
MINNY Uh, 1
MINNY Never, 1
HILLY Oh, 1
Minny losin, 1
ELIZABETH Hurry, 1
ELIZABETH No  AIBILEEN, 1
YULE MAY, 1
Aibileen , 1
LEROY, 1
AIBILEEN Miss Skeeter, 1
Minny  AIBILEEN Minny, 1
Yule, 1
Stein, 1
SUGAR, 1
MINNY Eat, 1
Miss Woodra, 1
CELIA Hey, 1
Celia Rae Foote, 1
CELIA Sugar Ditch, 1
Sugar Ditch, 1
Teddy Roosevelt, 1
MINNY No huggin, 1
CELIA You, 1
CELIA Oww  Dawgonit , 1
MINNY Aibileen  Minny, 1
Deacon, 1
MINNY All, 1
MINNY Belzoni, 1
Sarah Ross, 1
MISS STEIN Eugenia, 1
AIBILEEN Don, 1
MINNY Shake, 1
CELIA Oh, 1
MINNY Minny, 1
STUART WHITWORTH, 1
STUART Isn, 1
HILLY William, 1
JOHNNY Hilly, 1
JOHNNY William, 1
WILLIAM Nice, 1
HILLY Sweetie, 1
CELIA FOOTE Hilly, 1
CELIA FOOTE Well, 1
Trout Almondine, 1
Mister William, 1
WILLIAM Well, 1
MYRLIE EVERS, 1
Medgar, 1
Mae Mo, 1
ELIZABETH She, 1
Ross Barnett, 1
SKEETER Not, 1
Skeeter  Skeeter, 1
Jim Crow, 1
CHARLOTTE Don, 1
CHARLOTTE Stuart, 1
STUART No, 1
SKEETER Ha  Charlotte, 1
STUART Whitworth, 1
STUART Natchez, 1
Whitworth, 1
STUART Look, 1
William or Hilly, 1
STUART Neither, 1
STUART Now, 1
STUART Well, 1
Crisco, 1
MAE MOBLEY Me, 1
Luther King, 1
LEROY JR, 1
KINDRA, 1
FELICIA, 1
BENNY, 1
MINNY KKK, 1
MINNY Hitch, 1
SKEETER Hilly, 1
Lou Ann Templeton, 1
MINNY Miss Celia , 1
CELIA There, 1
CELIA FOOTE Minny, 1
Aibiee, 1
HILLY Jolene, 1
ELIZABETH Shhh , 1
Minny  Minny, 1
MINNY Now, 1
Sexy  CELIA, 1
AIBILEEN Yule May, 1
MINNY Hilly Holbrook, 1
PEARLY, 1
Pearly, 1
Margaret, 1
Dixon, 1
GRETCHEN Well, 1
Nigger, 1
GRETCHEN You, 1
Alton Spears, 1
Spears, 1
Love Alton, 1
CHARLOTTE Well, 1
Hand, 1
Phelan, 1
STUART Honey, 1
JFK, 1
HILLY Momma, 1
MISSUS WALTERS Well, 1
SKEETER Yes, 1
Miss Hilly Holbrook, 1
JOHNNY You, 1
MINNY Hilly, 1
ELIZABETH Hi, 1
JOLENE Yours, 1
JOLENE Oh, 1
CELIA Woohoo, 1
JOHNNY Honey, 1
HILLY Why, 1
JOLENE I, 1
Missus Atwell, 1
CELIA Congratulations, 1
STUART Oh, 1
CELIA Hilly, 1
HILLY Johnny, 1
CELIA Uhoh, 1
MINNY Don, 1
MINNY Ain, 1
MINNY She, 1
MINNY Miss Hilly, 1
CELIA Thank, 1
STUART Hey, 1
Aren, 1
Faye Belle, 1
Miss Lilia, 1
CHARLOTTE I, 1
Miss Celia , 1
MINNY Greens, 1
MINNY Maybe, 1
ERNESTINE, 1
Bertha, 1
HILLY Don, 1
SKEETER Don, 1
DUSK Skeeter, 1
STUART Skeeter, 1
Daddy I, 1
STUART Hang, 1
STUART Sure, 1
Kindra, 1
JOHNNY Finally, 1
MINNY Please, 1
JOHNNY Well, 1
Betty, 1
Charlene, 1
Cora, 1
REVEREND Aibileen, 1
Reverend, 1
Row, 1
Hibbie Goodman, 1
Missy, 1
CHARLOTTE Darling, 1
MINNY Wait, 1
AIBILEEN Minny, 1
HILLY Elizabeth, 1
MAE MOBLEY Don, 1
Aibiee  Aibileen, 1
Manna, 1
Pucci, 1