Neville, 587
NEVILLE, 367
Cortman, 100
Anna, 96
ANNA, 53
DAY Neville, 35
NIGHT Neville, 35
CORTMAN, 28
ELLEN, 25
Ellen, 24
Krippen, 21
Eva, 19
Ethan, 16
God, 14
Christopher, 13
Grace, 11
ANNA I, 10
NEVILLE I, 9
DUSK Neville, 9
CHRISTOPHER, 9
Bob, 8
Robert Neville, 7
TED KOPPEL, 7
BARKS, 6
Robert, 5
ANNA You, 5
White, 4
KRIPPEN, 4
Ben, 4
Bobby, 3
DAWN Neville, 3
Gracie, 3
GRACE, 3
BROWN, 3
Hell, 3
NEVILLE Anna, 3
ANNA Please, 3
Doug, 3
ANNA Robert , 3
PETERSEN, 3
Devil, 3
Bill, 2
Charlotte, 2
Bob Neville, 2
NEVILLE Wow, 2
ROBERT, 2
CORTMAN Neville, 2
John Krippen, 2
GOD, 2
Jesus, 2
DANE, 2
WHITE, 2
Brown, 2
Hemocyte, 2
JOHN KRIPPEN, 2
Shepherd, 2
Shepard, 2
NEVILLE Yeah, 2
NEVILLE Please, 2
NEVILLE Oh, 2
ANNA Thank, 2
ANNA Don, 2
ANNA Who, 2
NEVILLE Cortman, 2
SANCHEZ, 2
NEVILLE Ellen, 2
NEVILLE Anna , 2
ETHAN, 2
ANNA Hey, 2
ANNA Well, 2
Anna SCREAMS, 2
CHRISTOPHER I, 2
Sun Tzu, 1
Albert Camus, 1
Lord Byron, 1
Don Juan, 1
ROBERT NEVILLE, 1
Degas, 1
Klee, 1
Rothko, 1
Van Gogh, 1
Katie Couric, 1
Bryant Gumbel, 1
KATIE, 1
Art Ulene, 1
Napoleon, 1
NEVILLE Terrific, 1
Eric Satie, 1
NiemanMarcus, 1
NEVILLE Great, 1
NEVILLE Hey, 1
NEVILLE Ahahah, 1
NEVILLE Your, 1
NEVILLE DON T MOVE, 1
Dan Rather, 1
Gorecki, 1
Miserere, 1
Krzystof Penderecki, 1
Hemocyte Neville, 1
NIGHT Cortman, 1
RICH CRIMSON, 1
Stoic, 1
Vivaldi, 1
NEVILLE Ten, 1
ELLEN NEVILLE, 1
Viragene, 1
NEVILLE Ellie, 1
Ellie, 1
ELLEN Bobby, 1
ELLEN Oh, 1
John Ford, 1
NEVILLE Uhuh, 1
Mommy, 1
ELLEN You, 1
NEVILLE San Fran, 1
NEVILLE Hello, 1
Kevlar, 1
KNEES White, 1
BOXER, 1
Dane, 1
Black, 1
JERRY CAN, 1
Christopher  CHRISTOPHER Altogether, 1
Satan, 1
Jeff, 1
NEVILLE Seven, 1
Margie, 1
Tom Bernardi, 1
NEVILLE Sure, 1
Ted Koppel, 1
Koppel, 1
Neville LAUGHS, 1
Benjamin Cortman, 1
KOPPEL, 1
NEVILLE Krippen, 1
ELLEN Scary, 1
Neville STORMS, 1
LAUGHTER, 1
ANNA Anna McCauley, 1
ANNA Just, 1
Me, 1
ANNA Doug, 1
NEVILLE Bullshit, 1
ANNA Yes, 1
Shampoos, 1
NEVILLE Slow, 1
NEVILLE Eat, 1
NEVILLE Stop, 1
ANNA Ah, 1
ANNA Bondage, 1
ANNA Answer, 1
ANNA Up, 1
NEVILLE Right, 1
ANNA Nineteen, 1
NEVILLE Hadn, 1
ANNA Men, 1
ANNA Yeah, 1
ANNA Oh yeah, 1
DUSK Anna, 1
NEVILLE Well, 1
ANNA Not, 1
John Sanchez, 1
Petersen, 1
ANNA She, 1
NEVILLE Don, 1
DAY ELLEN, 1
NEVILLE Kitchen, 1
ELLEN Asleep, 1
ELLEN Bob  NEVILLE, 1
NEVILLE Blood, 1
GRACE Daddy, 1
NEVILLE Yes, 1
ELLEN Oh God, 1
ELLEN Robert, 1
Anna JUMPS, 1
ANNA It, 1
ANNA Nothing, 1
ANNA Let, 1
ANNA S VOICE Robert , 1
ANNA Dinner, 1
ANNA Sit, 1
ANNA Right, 1
ANNA S, 1
CORTMAN NEVILLE, 1
Heaven, 1
Kneels, 1
Poe, 1
Alien, 1
CORTMAN Drink, 1
CORTMAN Don, 1
Nurse, 1
Hemocytes, 1
ANNA NOOOOOO, 1
EVA, 1
Neville GRIMACES, 1
CHRISTOPHER Christopher Collier, 1
CHRISTOPHER You, 1
CHRISTOPHER Fine, 1
YARD Neville, 1
CHRISTOPHER Take, 1
ANNA Robert, 1
Anna REACT, 1
Don, 1
ANNA Ethan  Run , 1
ANNA Leave, 1
Anna FIRES, 1
ANNA Robert  Neville, 1
Anna SLIDES, 1
ANNA Ethan, 1
PIER, 1
NEVILLE Ethan , 1
Hello Robert, 1
ANNA ROBERT , 1
ANNA , 1
Cortman LAUGHS, 1
Pulls, 1
PUMMEL Neville, 1
Neville JUMPS, 1
Eliot, 1