Louis, 361
Lestat, 165
Claudia, 147
Armand, 38
CLAUDIA, 32
Malloy, 18
Yvette, 16
MALLOY, 13
God, 12
Madeleine, 12
Santiago, 9
LESTAT, 8
LOUIS, 7
LOUIS Lestat, 6
CLAUDIA I, 6
CLAUDIA You, 6
LOUIS Don, 5
LOUIS Yes, 5
LOUIS Claudia, 5
CLAUDIA Louis, 5
LESTAT Don, 4
LOUIS Dear God, 4
ARMAND, 4
ARMAND Louis, 4
LOUIS I, 3
Monsieur, 3
LESTAT Claudia, 3
NIGHT Lestat, 2
NIGHT Louis, 2
MALLOY You, 2
Teresa, 2
POV Claudia, 2
LOUIS Hush, 2
CLAUDIA Don t Louis, 2
LESTAT Louis, 2
MADELEINE, 2
ESTELLE, 2
ARMAND I, 2
MADELEINE Yes, 2
Estelle, 2
David Copperfield, 1
MALLOY Yes, 1
Lady Luck, 1
Gambler, 1
YVETTE, 1
Diane, 1
LOUIS Diane, 1
LOUIS Carlos, 1
Carlos, 1
LOUIS Kill, 1
Young, 1
Fangs, 1
Louis brow, 1
NIGHT Malloy, 1
LOUIS Nonsense, 1
LESTAT Yes, 1
TERESA Come, 1
Louis knee, 1
Clair, 1
YVETTE Michi Louis, 1
Lestat I, 1
LESTAT I, 1
LESTAT Lie, 1
CLAUDIA Mama, 1
Mama, 1
CLAUDIA Monsieur, 1
Papa, 1
God Lestat, 1
LESTAT Gently, 1
Heaven, 1
CLAUDIA Lou, 1
LOUIS Shall, 1
CLAUDIA Let, 1
Mozart, 1
CLAUDIA She, 1
LOUIS Bless, 1
LOUIS Murders, 1
CLAUDIA Oh, 1
LESTAT Ah Louis, 1
CLAUDIA I ll, 1
CLAUDIA Don, 1
CLAUDIA Goodnight, 1
Louis  LOUIS Don t, 1
No Lestat, 1
Suddenly Lestat, 1
GALLERY Louis, 1
Poussin, 1
CLAUDIA Well, 1
EVENING Louis, 1
LOUIS Come, 1
Edgar Allen Poe, 1
Death, 1
CLAUDIA LOUIS, 1
LOUIS Monstrous, 1
ARMAND Yes, 1
Devil, 1
CLAUDIA Come, 1
LOUIS You, 1
Venus, 1
GABRIEL, 1
LOUIS Love, 1
CLAUDIA Do, 1
ARMAND She, 1
My God, 1
Lestat  ARMAND Yes, 1
Madonna, 1
CLAUDIA Madeleine, 1
MADELEINE Drink, 1
Louis , 1
Madeleine CLAUDIA You, 1
Madeleine LOUIS, 1
MADELEINE Yes  Louis, 1
Louis  Louis, 1
LESTAT He, 1
Armand  Armand, 1
COFFIN Claudia, 1
COFFIN Louis, 1
ARMAND Hurry, 1
Armand , 1
LESTAT You, 1
LOUIS CLAUDIA, 1
SANTIAGO Comes, 1
ARMAND You, 1
Turner, 1
Murnau, 1
MALLOY No, 1
MALLOY Jesus, 1