Richard Parker, 114
Pi, 94
God, 27
Ravi, 19
Mamaji, 17
Mother, 15
Anandi, 13
RAVI, 6
Father, 5
Selvam, 5
Krishna, 4
Francis, 3
Piscine Molitor Patel, 3
Vishnu, 3
Christ, 3
Pi Patel, 2
Appa, 2
RICHARD PARKER, 2
OKAMOTO, 2
Jimmy Durante, 1
Amused, 1
Jules Verne, 1
Piscine Patel, 1
Bully, 1
Shrugs, 1
Yashoda, 1
Hanuman, 1
Lakshmana, 1
Ganesh, 1
Parvati, 1
Him, 1
Himself, 1
Allah, 1
No Gita, 1
Santosh, 1
Thirsty, 1
RAVI You, 1
Hello, 1
Chatura, 1
PATEL, 1
RAVI Don, 1
PI Hari  Hari, 1
Hazy, 1
Lord Vishnu, 1
Richard Parker  Pi, 1
Okamoto, 1
Patel, 1