SUSIE, 429
HARVEY, 229
JACK, 203
LINDSEY, 124
ABIGAIL, 116
GRANDMA LYNN, 58
BUCKLEY, 47
RUTH, 40
FENERMAN, 34
RAY, 32
Susie, 25
HOLLY, 24
CLARISSA, 15
BRIAN, 15
Jack, 13
CONNORS, 13
CADEN, 10
LYNN, 8
Len, 7
RAY SINGH, 6
HARVEY Oh, 6
DAY SUSIE, 6
SAMUEL, 6
RUTH CONNORS, 5
Buckley, 5
Ray, 5
JACK’S, 5
HARVEY Yeah, 4
Salmon, 4
Lindsey, 4
DAY LINDSEY, 4
GEORGE HARVEY, 3
Grandma, 3
JACK Hey, 3
Abigail, 3
Susie Salmon, 3
RUTH’S, 3
LEN FENERMAN, 3
DUSK SUSIE, 3
LEN, 3
ABIGAIL Jack, 3
SUSIE’S, 3
SUSIE SALMON, 2
Dad, 2
Ruth Connors, 2
Grandma Lynn, 2
O’Dwyer, 2
Clarissa, 2
JACK I, 2
JACK Susie, 2
JACK You, 2
JACK Bye, 2
BRIAN NELSON, 2
SUSIE Yeah, 2
Harvey, 2
Okay, 2
Harvey , 2
HARVEY I, 2
Holly, 2
JACK Look, 2
ABIGAIL Honey, 2
JACK Len, 2
JACK Lindsey, 2
HARVEY Mr, 2
HARVEY Alright, 2
George Harvey, 2
Flora Hernandez, 2
Denise Lee Eng, 2
CONNOR, 2
RUTH Ray , 2
CHUBBY, 1
JACK SALMON, 1
Dave Edmunds, 1
GRACE, 1
CONNORS’, 1
CONNOR’S, 1
SUSIE Mom  Dad  SUSIE, 1
NATE, 1
ABIGAIL SALMON, 1
BUCKLEY’S, 1
ABIGAIL Buckley, 1
Lilibeth, 1
RUANA, 1
Ray Singh, 1
Abelard, 1
Heloise, 1
O’Dwyer’s, 1
SUSIE LAUGHS, 1
JACK Okay, 1
SUSIE Clarissa, 1
JACK Like, 1
Grampy, 1
Susie Q, 1
Jack  Susie  Dinnnnnnner  SUSIE, 1
Jack Alright, 1
SUSIE Please, 1
JACK Buddy, 1
Jack  Bye, 1
SUSIE Bye, 1
Susie  ABIGAIL, 1
LINDSEY Coolaroolie, 1
Suze  SUSIE Shuddup, 1
Lawrence Olivier, 1
CLARISSA Lawrence Oliver, 1
BRIAN NELSON Yeah, 1
Brian, 1
Hey, 1
RAY Othello, 1
Ellis, 1
CADEN Yes, 1
DUSK BUCKLEY, 1
JACK Hello, 1
Dad  LINDSEY, 1
god, 1
DUSK JACK, 1
JACK How, 1
JACK Go, 1
JACK Your, 1
LINDSEY Oh, 1
SUSIE Um, 1
HARVEY Good, 1
CURIOUS, 1
Harvey I, 1
JACK No, 1
ABIGAIL Okay, 1
Popeye, 1
LINDSEY Uh, 1
ABIGAIL Really, 1
Steads, 1
Jack Where, 1
FENERMAN Susan, 1
ABIGAIL Susie, 1
HARVEY’S, 1
JACK Well, 1
DAWN JACK, 1
HARVEY Yes, 1
Len Fenerman, 1
HARVEY Uh, 1
FENERMAN Okay, 1
Ray  SUSIE, 1
SUSIE Ray , 1
RAY’S, 1
SUSIE Hey , 1
Holly Golightly, 1
NIGHT SUSIE, 1
Alice, 1
DUSK, 1
JACK Now, 1
Joe Ellis, 1
Herman Stolfuz, 1
Herman, 1
ABIGAIL Jack , 1
GRANDMA LYNN Daaaarling, 1
ABIGAIL Hello, 1
Mother, 1
Jack , 1
GRANDMA LYNN Well, 1
ALKA SELTZERS, 1
SCOTCH, 1
BUCKLEY Grnadma, 1
GRANDMA LYNN Yeah, 1
BUCKLEY Lindsey, 1
BUCKLEY Susie, 1
JACK Yeah, 1
ABIGAIL Mother, 1
Dear Lindsey, 1
HARVEY Yup, 1
JACK Here, 1
LINDSEY Lucky, 1
LINDSEY Well, 1
JACK He, 1
LINDSEY Dad, 1
JACK Things, 1
BRIAN’S, 1
JACK CLARISSA, 1
BRIAN Let, 1
Sophie Cichetti, 1
Jackie Meyer, 1
Leah Fox, 1
Lana Johnson, 1
LINDSEY You, 1
Sure, 1
LINDSEY SALMON, 1
GRANDMA LYNN Buck, 1
Buck, 1
JACK Abigail, 1
LINDSEY I, 1
CONNORS Yeah, 1
CONNORS Yup, 1
Ruth, 1
SUSIE Yes, 1
LANA JOHNSON, 1
SUSIE Almost, 1
RAY Ruth, 1
Brian Eno SUSIE, 1
RAY You, 1
HARVEY Brrr, 1
Van Morrison, 1