KELVIN, 151
Kelvin, 131
Rheya, 97
RHEYA, 60
Sartorius, 33
SARTORIUS, 27
KELVIN S ROOM Kelvin, 27
Snow, 22
God, 18
DAY Kelvin, 13
Gibarian, 11
KELVIN I, 10
Chris, 8
KELVIN Yes, 8
KELVIN Rheya, 8
KELVIN You, 8
RHEYA Don, 6
KELVIN S, 5
DAY Rheya, 5
KELVIN Gibarian, 4
RHEYA Chris, 4
KELVIN S CABIN, 4
KELVIN All, 3
KELVIN She, 3
GIBARIAN, 2
PROMETHEUS Kelvin, 2
KELVIN Snow, 2
KELVIN Listen, 2
KELVIN Asleep, 2
KELVIN Go, 2
NIGHT Rheya, 2
Dylan Thomas, 2
RHEYA Right, 2
Don, 2
KELVIN That, 2
KELVIN Neither, 2
KELVIN S ROOM, 2
Steven Soderbergh, 1
Man, 1
CHRIS KELVIN, 1
KELVIN Prometheus, 1
KELVIN How, 1
KELVIN Where, 1
KELVIN Her, 1
KELVIN Tell, 1
KELVIN Awakens, 1
KELVIN Oh, 1
GIBARIAN Nelson, 1
KELVIN Poem, 1
RHEYA Better, 1
KELVIN Let, 1
PROMETHEUS Rheya, 1
LAB Kelvin, 1
RHEYA Yes, 1
Lois, 1
NIGHT Kelvin, 1
RHEYA Scared, 1
Kevin, 1
RHEYA Sartorius, 1
KELVIN Well, 1
KELVIN Stop, 1
SARTORIUS Gibarian, 1
KELVIN Don, 1
SARTORIUS Rheya, 1
KELVIN S ROOM Rheya, 1
KELVIN Human, 1
KELVIN A, 1
KELVIN He, 1
RHEYA I, 1
KELVIN We, 1
KELVIN Stay, 1
KELVIN Please, 1
KELVIN Wakes, 1
KELVIN Sweating, 1
STREET Kelvin, 1
KEVIN, 1
DAY Kevin, 1
SARTORIUS Kelvin, 1
KELVIN Snow  Snow, 1
SARTORIUS Snow, 1
KELVIN Jesus, 1
KELVIN Maybe, 1