Jacob, 643
Marlena, 251
Rosie, 153
JACOB, 100
MARLENA, 92
Walter, 37
JACOB I, 34
Earl, 29
Kinko, 24
Queenie, 24
Charlie, 21
Camel, 21
Barbara, 18
Greg, 18
Blackie, 16
WALTER, 15
Grady, 11
Rex, 10
ROSIE, 10
MARLENA I, 10
CHARLIE, 9
Jacob Jankowski, 7
Nell, 7
Joe, 6
JACOB How, 6
Ringling, 6
JACOB August, 6
Lucinda, 6
Jankowski, 5
Bill, 5
GREG, 5
Darling, 5
Diamond Joe, 5
God, 5
JACOB You, 5
Bobo, 5
JACOB Rosie, 5
BLACKIE, 5
JANKOWSKI, 4
Jacob  Jacob, 4
Crazy Joe, 4
BARBARA, 4
Jake, 4
Erwin, 4
WALTER I, 4
JACOB No, 3
Rosenbluth, 3
WADE, 3
Cecil, 3
JACOB Oh, 3
JACOB She, 3
MARLENA You, 3
MARLENA Don, 3
MARLENA Jacob, 3
JACOB Marlena, 3
Dick Nesci, 3
JACOB JANKOWSKI, 2
Russ, 2
JACOB Jacob Jankowski, 2
CHARLIE I, 2
Brute, 2
GRADY, 2
Orangutan, 2
Wade, 2
August, 2
Cornell, 2
Marlena Rosenbluth, 2
MARLENA Oh, 2
MARLENA Oh Jacob, 2
JACOB What, 2
MARLENA No, 2
JACOB Walter, 2
MARLENA Auggie, 2
WALTER Jacob, 2
RUSS, 1
CHARLIE Excuse, 1
CHARLIE Yes, 1
CHARLIE Did, 1
CHARLIE Sir, 1
CHARLIE You, 1
Malcolm, 1
JACOB Ringling, 1
CHARLIE I ll, 1
Charlie O Brien, 1
CHARLIE Mr, 1
Jacobs, 1
CHARLIE Camels, 1
CHARLIE So, 1
CHARLIE Sorry, 1
JACOB Now, 1
JACOB S, 1
Proctor, 1
Dean, 1
Dean Wilkins, 1
DEAN WILKINS Jacob, 1
EDMUND HYDE, 1
DAY Jacob, 1
Hyde, 1
STUBBLE, 1
JACOB Jacob, 1
JACOB Who, 1
BILL Ha, 1
BENZINI, 1
CECIL, 1
LAAADIIIEEESS, 1
Woah, 1
JACOB Hey Camel, 1
JACOB Wife, 1
ERWIN, 1
CRAZY JOE, 1
JACOB Yes, 1
JOE I, 1
JACOB Cornell, 1
JOE Marlena, 1
CECIL He, 1
JOE He, 1
KINKO, 1
Russell, 1
QUEENIE, 1
Jack Russell, 1
Jacob  Camel, 1
JACOB See ya Camel, 1
Jacob , 1
JACOB It, 1
Jesus, 1
Silver Star, 1
JACOB Not, 1
Pete, 1
JACOB SCREAMS, 1
Stoic Marlena, 1
JACOB Friends, 1
JACOB My, 1
EARL MARLENA, 1
Rosie s Caretaker, 1
ROSIE S, 1
JACOB Mrs, 1
JACOB Hello Rosie, 1
JACOB MARLENA Louis Armstrong, 1
ROSENBLUTH, 1
Blackie s Men, 1
MARLENA People, 1
Jacob  Marlena, 1
Louis Armstrong, 1
Satchmo, 1
MARLENA Darling, 1
JACOB Tonight, 1
MARLENA Oh Auggie, 1
MARLENA Well, 1
Ruth Etting, 1
MARLENA Here, 1
NELL, 1
KINKO JACOB, 1
Camera, 1
JACOB Let, 1
JACOB STOPS, 1
JACOB Sure Kinko, 1
ERWIN I, 1
Rosie STEP  Rosie, 1
Rosie , 1
JACOB Can, 1
JACOB Please, 1
Lucinda s Wagon, 1
Marlena O, 1
GREG Gin, 1
JACOB Greg, 1
GREG Grabowski, 1
JACOB Jankowski, 1
GREG Last, 1
GREG Don, 1
Doc, 1
JACOB AUGUST, 1
GREG Here, 1
GREG Oh, 1
Masz, 1
piekna Jacob, 1
JACOB Just, 1
JACOB Daj, 1
JACOB Say, 1
Prozze Rosie, 1
JACOB Go, 1
JACOB Maybe, 1
MARLENA Lord, 1
JACOB MARLENA AAAHAHAHAAHAAAHAAAAA AHAAHAHAHAHAAHAHAHAHAH, 1
MARLENA It, 1
Sweet Jacob, 1
MARLENA Am I, 1
MARLENA Promise, 1
NIGHT Jacob, 1
JACOB Hey, 1
WALTER Like, 1
BILL Grady, 1
DAWN Walter, 1
JACOB Good, 1
MARLENA Good, 1
JACOB Well, 1
MARLENA Haha Jacob, 1
Barnum, 1
Gods, 1
JACOB Thank you, 1
JACOB Sure, 1
JACOB We, 1
WALTER Come, 1
WALTER Something, 1
JACOB My God, 1
WALTER Aw, 1
MARLENA My God, 1
JACOB Does, 1
JACOB He, 1
JACOB Don, 1
Oh Marlena, 1
Cries, 1
JACOB Rest, 1
MARLENA JACOB, 1
BRONX Kinko, 1
BARBARA Don, 1
WALTER Sshh, 1
WALTER Does, 1
Gotta, 1
JACOB Do, 1
WALTER You, 1
Walter s Knife, 1
JACOB WALTER, 1
EARL Come, 1
GREG JACOB, 1
HYENA, 1
BOBO, 1
LLAMAS, 1
JACOB MARLENA, 1
DICK NESCI, 1
GREG He, 1
JACOB Gertrude, 1
Nesci, 1
DICK NESCI Gertrude  Gertrude, 1
Smiles, 1
CHARLIE Hi, 1
CHARLIE We, 1
JACOB Nah, 1
JACOB Thank, 1